Division,WeightClassKg,Place,Name,Team,BodyweightKg,Best3SquatKg,Best3BenchKg,Best3DeadliftKg,TotalKg,Equipment,Event,Sex,BirthDate
Boys,51.71,1,Rey Medrano,Mathis,51.26,127.01,72.57,147.42,347,Single-ply,SBD,M,
Boys,51.71,2,Justin Bronaugh,Skidmore-Tynan,51.26,99.79,54.43,122.47,276.69,Single-ply,SBD,M,
Boys,51.71,3,Anthony Gonzalez,Luling,49.9,95.25,47.63,120.2,263.08,Single-ply,SBD,M,
Boys,55.79,1,Javier Aleman,Karnes City,55.34,151.95,83.91,149.69,385.55,Single-ply,SBD,M,
Boys,55.79,2,Jose Miranda #2,Kenedy,53.52,133.81,70.31,131.54,335.66,Single-ply,SBD,M,
Boys,55.79,3,Tanner Tucker,Luling,55.79,111.13,68.04,142.88,322.05,Single-ply,SBD,M,
Boys,55.79,4,Nick Martinez,Stockdale,54.43,122.47,65.77,129.27,317.51,Single-ply,SBD,M,
Boys,55.79,DQ,Enrique DeLeon,Kenedy,55.79,,,,,Single-ply,SBD,M,
Boys,59.87,1,Robert Rios,Mathis,59.87,192.78,104.33,192.78,489.88,Single-ply,SBD,M,
Boys,59.87,2,Reagan Villareal,Kenedy,59.87,179.17,88.45,179.17,446.79,Single-ply,SBD,M,
Boys,59.87,3,Joe Fraga,Runge,58.51,147.42,79.38,172.37,399.16,Single-ply,SBD,M,
Boys,59.87,4,Ethan Hernandez,Geronimo Navarro,59.42,142.88,86.18,122.47,351.53,Single-ply,SBD,M,
Boys,59.87,5,Javier Ontiveros,Refugio,58.97,113.4,83.91,138.35,335.66,Single-ply,SBD,M,
Boys,59.87,6,Mikal Niembro,George West,58.97,136.08,72.57,120.2,328.85,Single-ply,SBD,M,
Boys,59.87,7,Sebastian Rodriguez,Luling,58.06,83.91,65.77,122.47,272.16,Single-ply,SBD,M,
Boys,59.87,DQ,Dylan Fraga,Runge,59.87,122.47,,,,Single-ply,SBD,M,
Boys,67.13,1,Elijah Ybarra,Mathis,66.22,233.6,129.27,204.12,566.99,Single-ply,SBD,M,
Boys,67.13,2,Elyon Ybarra,Mathis,64.41,181.44,113.4,183.7,478.54,Single-ply,SBD,M,
Boys,67.13,3,Alex Sanchez,Kenedy,66.68,188.24,86.18,197.31,471.74,Single-ply,SBD,M,
Boys,67.13,4,Trent Jones,Runge,66.68,136.08,90.72,156.49,383.29,Single-ply,SBD,M,
Boys,67.13,5,Mason Diaz,Kenedy,64.86,129.27,102.06,142.88,374.21,Single-ply,SBD,M,
Boys,67.13,6,Sincere Alaniz,Karnes City,67.13,129.27,72.57,165.56,367.41,Single-ply,SBD,M,
Boys,67.13,7,Syriz Martinez,Three Rivers,65.77,136.08,77.11,145.15,358.34,Single-ply,SBD,M,
Boys,67.13,8,Ashton Gomez,Stockdale,60.78,136.08,81.65,136.08,353.8,Single-ply,SBD,M,
Boys,67.13,9,Gilbert Salas,Karnes City,67.13,129.27,72.57,138.35,340.19,Single-ply,SBD,M,
Boys,67.13,DQ,Brandon Centers,George West,67.13,,,,,Single-ply,SBD,M,
Boys,74.84,1,Alvin Amador,Kenedy,74.84,201.85,111.13,213.19,526.17,Single-ply,SBD,M,
Boys,74.84,2,Logan Schanen,Skidmore-Tynan,72.57,195.04,106.59,215.46,517.1,Single-ply,SBD,M,
Boys,74.84,3,Trevon Moore,Universal City Randolph,71.21,204.12,124.74,181.44,510.29,Single-ply,SBD,M,
Boys,74.84,4,Joseph Valdez,Kenedy,71.21,188.24,95.25,199.58,483.08,Single-ply,SBD,M,
Boys,74.84,5,Noah Paiz,George West,68.49,183.7,106.59,188.24,478.54,Single-ply,SBD,M,
Boys,74.84,6,Maximus Hill,Universal City Randolph,67.59,181.44,104.33,183.7,469.47,Single-ply,SBD,M,
Boys,74.84,7,Micheal Kroll,Karnes City,71.21,156.49,115.67,190.51,462.66,Single-ply,SBD,M,
Boys,74.84,8,Ramiro Torres,Runge,73.48,163.29,104.33,156.49,424.11,Single-ply,SBD,M,
Boys,74.84,9,Marshall Homeyer,Karnes City,73.03,127.01,97.52,154.22,378.75,Single-ply,SBD,M,
Boys,74.84,10,Trevor Bennet,Goliad,71.67,151.95,81.65,133.81,367.41,Single-ply,SBD,M,
Boys,74.84,11,Jordan Jaramillo,Karnes City,72.57,138.35,83.91,145.15,367.41,Single-ply,SBD,M,
Boys,74.84,12,Ashton Anderson,Luling,73.48,138.35,79.38,147.42,365.14,Single-ply,SBD,M,
Boys,82.1,1,Tristan Breitenkamp,Geronimo Navarro,81.65,206.38,133.81,199.58,539.77,Single-ply,SBD,M,
Boys,82.1,2,George De Los Santos,Kenedy,81.65,206.38,113.4,195.04,514.83,Single-ply,SBD,M,
Boys,82.1,3,Fernando Castillo,George West,78.47,199.58,115.67,195.04,510.29,Single-ply,SBD,M,
Boys,82.1,4,Adrian Flores,Kenedy,79.83,188.24,99.79,215.46,503.49,Single-ply,SBD,M,
Boys,82.1,5,Tristan Trevino,Poth,76.2,197.31,102.06,192.78,492.15,Single-ply,SBD,M,
Boys,82.1,6,Jeremiah Rivera,Karnes City,82.1,181.44,90.72,181.44,453.59,Single-ply,SBD,M,
Boys,82.1,7,Pudua Nunez,Universal City Randolph,75.75,172.37,104.33,163.29,439.98,Single-ply,SBD,M,
Boys,82.1,8,Izacc Zamora,Geronimo Navarro,80.29,151.95,90.72,190.51,433.18,Single-ply,SBD,M,
Boys,82.1,9,Chris Laughlin,Skidmore-Tynan,75.75,147.42,104.33,174.63,426.38,Single-ply,SBD,M,
Boys,82.1,10,Lj Kroll,Karnes City,77.56,145.15,86.18,190.51,421.84,Single-ply,SBD,M,
Boys,82.1,11,Aidan Garza,Karnes City,80.29,127.01,68.04,154.22,349.27,Single-ply,SBD,M,
Boys,82.1,12,Peyton Cole,Geronimo Navarro,80.74,102.06,68.04,122.47,292.57,Single-ply,SBD,M,
Boys,82.1,DQ,Carson Morris,Universal City Randolph,78.93,165.56,,,,Single-ply,SBD,M,
Boys,89.81,1,Euler de Leon,Geronimo Navarro,84.82,256.28,156.49,267.62,680.39,Single-ply,SBD,M,
Boys,89.81,2,Ethan Thomas,Geronimo Navarro,86.18,201.85,142.88,199.58,544.31,Single-ply,SBD,M,
Boys,89.81,3,Brett Butler,Geronimo Navarro,89.81,204.12,140.61,199.58,544.31,Single-ply,SBD,M,
Boys,89.81,4,Daniel Mendoza,Runge,85.28,188.24,111.13,206.38,505.76,Single-ply,SBD,M,
Boys,89.81,5,Caleb Blankenship,Three Rivers,89.81,136.08,102.06,158.76,396.89,Single-ply,SBD,M,
Boys,89.81,6,Tony Barrientos,Stockdale,87.09,136.08,92.99,145.15,374.21,Single-ply,SBD,M,
Boys,89.81,7,Jacinto Rodriguez,Geronimo Navarro,88.45,106.59,61.23,117.93,285.76,Single-ply,SBD,M,
Boys,89.81,DQ,Mason Moore,Karnes City,88.9,170.1,,,,Single-ply,SBD,M,
Boys,99.79,1,Dante DeLeon,Mathis,97.07,240.4,163.29,217.72,621.42,Single-ply,SBD,M,
Boys,99.79,2,Sebastian Segura,Karnes City,98.88,260.82,142.88,215.46,619.15,Single-ply,SBD,M,
Boys,99.79,3,Steven Nava,Karnes City,97.98,213.19,133.81,217.72,564.72,Single-ply,SBD,M,
Boys,99.79,4,Benji DeNava,Refugio,92.08,201.85,124.74,217.72,544.31,Single-ply,SBD,M,
Boys,99.79,5,Andrew Zuniga,Three Rivers,97.07,195.04,117.93,204.12,517.1,Single-ply,SBD,M,
Boys,99.79,6,Solomon Barnoski,Karnes City,92.99,172.37,92.99,192.78,458.13,Single-ply,SBD,M,
Boys,99.79,7,Nando Vargas,Kenedy,94.8,188.24,92.99,158.76,439.98,Single-ply,SBD,M,
Boys,99.79,8,Michael Rocha,Refugio,96.62,142.88,102.06,174.63,419.57,Single-ply,SBD,M,
Boys,99.79,9,Kaden Collins,Goliad,95.25,170.1,95.25,138.35,403.7,Single-ply,SBD,M,
Boys,99.79,10,Dylon Gatica,Karnes City,99.34,140.61,74.84,145.15,360.61,Single-ply,SBD,M,
Boys,99.79,11,Derek Lopez,Karnes City,98.88,142.88,74.84,136.08,353.8,Single-ply,SBD,M,
Boys,109.77,1,Richard Salazar #1,George West,104.78,247.21,136.08,226.8,610.08,Single-ply,SBD,M,
Boys,109.77,2,Logan Hebert,Stockdale,109.32,231.33,163.29,213.19,607.81,Single-ply,SBD,M,
Boys,109.77,3,Jaden Auther,Universal City Randolph,100.7,231.33,113.4,233.6,578.33,Single-ply,SBD,M,
Boys,109.77,4,Brandon Glaspie,Universal City Randolph,104.33,231.33,113.4,213.19,557.92,Single-ply,SBD,M,
Boys,109.77,5,Mark Alvizo,Poth,103.87,226.8,124.74,183.7,535.24,Single-ply,SBD,M,
Boys,109.77,6,DJ Nunez,Karnes City,107.95,185.97,136.08,188.24,510.29,Single-ply,SBD,M,
Boys,109.77,7,Rafael Santamaria,Luling,103.42,174.63,104.33,174.63,453.59,Single-ply,SBD,M,
Boys,109.77,8,Marcus Tristan,Karnes City,109.32,163.29,97.52,165.56,426.38,Single-ply,SBD,M,
Boys,109.77,9,Zarek Guerra,Goliad,109.77,142.88,92.99,142.88,378.75,Single-ply,SBD,M,
Boys,109.77,DQ,Peyton Rasbury,Mathis,106.14,,,,,Single-ply,SBD,M,
Boys,124.74,1,Jace Gonzales,Karnes City,111.13,278.96,145.15,244.94,669.05,Single-ply,SBD,M,
Boys,124.74,2,John Cuevas #2,Skidmore-Tynan,120.66,226.8,142.88,188.24,557.92,Single-ply,SBD,M,
Boys,124.74,3,Joseph Luna,Kenedy,119.75,210.92,113.4,226.8,551.11,Single-ply,SBD,M,
Boys,124.74,4,Matthew Mahlstede,Stockdale,113.4,190.51,136.08,204.12,530.7,Single-ply,SBD,M,
Boys,124.74,5,Alex Funnes,Geronimo Navarro,115.67,201.85,131.54,163.29,496.68,Single-ply,SBD,M,
Boys,124.74,6,Jalen Winebrenner,Universal City Randolph,117.03,161.03,108.86,176.9,446.79,Single-ply,SBD,M,
Boys,124.74,DQ,Diego Gutierrez,Mathis,120.66,,,,,Single-ply,SBD,M,
Boys,124.74,DQ,John Rodriguez,Skidmore-Tynan,115.67,219.99,124.74,,,Single-ply,SBD,M,
Boys,124.74+,1,Carter Holtkamp,Geronimo Navarro,136.98,285.76,176.9,244.94,707.6,Single-ply,SBD,M,
Boys,124.74+,2,Declan McCarn,Skidmore-Tynan,136.98,185.97,145.15,208.65,539.77,Single-ply,SBD,M,
Boys,124.74+,3,Walker Wimberly,Goliad,134.72,192.78,136.08,174.63,503.49,Single-ply,SBD,M,
Boys,124.74+,4,Paul Cruz,Skidmore-Tynan,143.79,183.7,111.13,192.78,487.61,Single-ply,SBD,M,
Boys,124.74+,5,Ethan Lopez,Karnes City,156.49,151.95,106.59,156.49,415.04,Single-ply,SBD,M,
Boys,124.74+,DQ,Xavier Perry,Goliad,142.43,,,,,Single-ply,SBD,M,
Boys,,NS,Deondre Holmes,Universal City Randolph,,,,,,Single-ply,SBD,M,
Boys,,NS,Nathan Meza,Refugio,,,,,,Single-ply,SBD,M,
Boys,,NS,Antonio Gomez,Luling,,,,,,Single-ply,SBD,M,
Boys,,NS,Adrian Crumley,Luling,,,,,,Single-ply,SBD,M,
Boys,,NS,Gavin Gutierrez,Runge,,,,,,Single-ply,SBD,M,
Boys,,NS,David Zamora,Luling,,,,,,Single-ply,SBD,M,
Boys,,NS,Jacob Trujillo,Universal City Randolph,,,,,,Single-ply,SBD,M,
Boys,,NS,Adin Parkes,Universal City Randolph,,,,,,Single-ply,SBD,M,
Boys,,NS,Garrett Garcia,Universal City Randolph,,,,,,Single-ply,SBD,M,
Boys,,NS,Michael Cepedes,Universal City Randolph,,,,,,Single-ply,SBD,M,
Boys,,NS,Adrian Valdez,Goliad,,,,,,Single-ply,SBD,M,
Boys,,NS,Sebastian Reyna,Runge,,,,,,Single-ply,SBD,M,
Boys,,NS,Gabe Means,Geronimo Navarro,,,,,,Single-ply,SBD,M,
Boys,,NS,CJ Tanguma,Mathis,,,,,,Single-ply,SBD,M,
Boys,,NS,Brandon Ridenour,Mathis,,,,,,Single-ply,SBD,M,
Boys,,NS,Jaydin Jones,Goliad,,,,,,Single-ply,SBD,M,
Boys,,NS,Jacob Guerrero,Goliad,,,,,,Single-ply,SBD,M,
Boys,,NS,Gage Barrera,Goliad,,,,,,Single-ply,SBD,M,
Boys,,NS,Gene Ratliff,Goliad,,,,,,Single-ply,SBD,M,
Boys,,NS,Clayton Klekar,Goliad,,,,,,Single-ply,SBD,M,
Boys,,NS,Logan Arciba,George West,,,,,,Single-ply,SBD,M,
Boys,,NS,Ayden Walpole,Poth,,,,,,Single-ply,SBD,M,
Boys,,NS,Kyle Jones,Poth,,,,,,Single-ply,SBD,M,
Boys,,NS,Kevin Zaiontz,Poth,,,,,,Single-ply,SBD,M,
Boys,,NS,Dalton Perry,Poth,,,,,,Single-ply,SBD,M,
Boys,,NS,Raymond Rodriguez,Three Rivers,,,,,,Single-ply,SBD,M,
Boys,,NS,Juan Pizano,Three Rivers,,,,,,Single-ply,SBD,M,
Boys,,NS,Keegan Westmoreland,Skidmore-Tynan,,,,,,Single-ply,SBD,M,
