Division,WeightClassKg,Place,Name,Team,BodyweightKg,Best3SquatKg,Best3BenchKg,Best3DeadliftKg,TotalKg,Equipment,Event,Sex
Boys,55.79,1,Daniel Chapa,Gregory-Portland,51.94,140.61,88.45,172.37,401.43,Single-ply,SBD,M
Boys,51.71,2,Robert Chapa,Gregory-Portland,51.44,151.95,86.18,161.03,399.16,Single-ply,SBD,M
Boys,51.71,3,Thomas Soto,Corpus Christi Calallen,51.17,142.88,68.04,174.63,385.55,Single-ply,SBD,M
Boys,51.71,4,Diego Pena,Roma,50.98,129.27,79.38,145.15,353.8,Single-ply,SBD,M
Boys,51.71,5,Pete Villarreal,Sinton,48.63,127.01,79.38,138.35,344.73,Single-ply,SBD,M
Boys,55.79,6,Lucas Glew,Beeville Jones,51.89,142.88,68.04,131.54,342.46,Single-ply,SBD,M
Boys,51.71,7,Ryan Yanez,Gregory-Portland,51.17,117.93,81.65,122.47,322.05,Single-ply,SBD,M
Boys,51.71,8,Robert Ramos,Corpus Christi Tuloso-Midway,48.99,113.4,56.7,117.93,288.03,Single-ply,SBD,M
Boys,55.79,9,Edward Davidson,Alice,51.89,102.06,61.23,117.93,281.23,Single-ply,SBD,M
Boys,51.71,10,Andy Torres,Gregory-Portland,48.63,83.91,47.63,95.25,226.8,Single-ply,SBD,M
Boys,51.71,11,Ty Gayhart,Gregory-Portland,49.71,90.72,43.09,86.18,219.99,Single-ply,SBD,M
Boys,55.79,1,Frankie Garza,Port Lavaca Calhoun,55.43,199.58,92.99,181.44,474,Single-ply,SBD,M
Boys,55.79,2,Enrique Gonzalez,Roma,55.75,138.35,97.52,183.7,419.57,Single-ply,SBD,M
Boys,59.87,3,Jeff Kearns,Gregory-Portland,56.02,127.01,83.91,167.83,378.75,Single-ply,SBD,M
Boys,59.87,4,Rene Rubalcava,San Diego,56.02,156.49,72.57,142.88,371.95,Single-ply,SBD,M
Boys,55.79,5,Robert Seward,Corpus Christi Calallen,53.98,129.27,72.57,163.29,365.14,Single-ply,SBD,M
Boys,55.79,6,Ben Heard,Corpus Christi Calallen,53.71,122.47,61.23,133.81,317.51,Single-ply,SBD,M
Boys,55.79,7,Byron Davidson,Corpus Christi Calallen,54.52,97.52,56.7,129.27,283.5,Single-ply,SBD,M
Boys,55.79,8,Brian Ruiz,Corpus Christi Calallen,54.61,102.06,63.5,117.93,283.5,Single-ply,SBD,M
Boys,59.87,1,Given McClure,Corpus Christi Calallen,58.33,170.1,106.59,192.78,469.47,Single-ply,SBD,M
Boys,59.87,2,Miguel Oliva,Robstown,59.51,179.17,113.4,172.37,464.93,Single-ply,SBD,M
Boys,59.87,3,JJ Gonzalez,Gregory-Portland,59.65,167.83,111.13,179.17,458.13,Single-ply,SBD,M
Boys,59.87,4,Eduardo Porras,Roma,58.06,158.76,102.06,188.24,449.06,Single-ply,SBD,M
Boys,59.87,5,Mario Leos,Seguin,56.15,145.15,106.59,183.7,435.45,Single-ply,SBD,M
Boys,67.13,6,Matt Buentello,Corpus Christi Tuloso-Midway,60.1,149.69,88.45,176.9,415.04,Single-ply,SBD,M
Boys,59.87,7,Marquis Barrolle,Ingleside,58.06,147.42,102.06,147.42,396.89,Single-ply,SBD,M
Boys,59.87,8,Rogelio Santiago,Corpus Christi Calallen,56.97,129.27,81.65,172.37,383.29,Single-ply,SBD,M
Boys,59.87,9,Justin Gonzalez,San Diego,58.42,151.95,88.45,136.08,376.48,Single-ply,SBD,M
Boys,59.87,10,Matt Sanchez,Kingsville King,57.52,97.52,63.5,136.08,297.1,Single-ply,SBD,M
Boys,59.87,DQ,Rico Rodriguez,San Diego,57.97,,,,,Single-ply,SBD,M
Boys,67.13,1,Dalton Torres,Beeville Jones,64.05,219.99,127.01,197.31,544.31,Single-ply,SBD,M
Boys,67.13,2,Josh Leal,Port Lavaca Calhoun,66.13,195.04,120.2,226.8,542.04,Single-ply,SBD,M
Boys,67.13,3,Jc Carpenter,Seguin,65.32,188.24,120.2,213.19,521.63,Single-ply,SBD,M
Boys,67.13,4,Ruben Salinas,Roma,66.32,201.85,117.93,197.31,517.1,Single-ply,SBD,M
Boys,67.13,5,Ryan Gomez,Corpus Christi Calallen,65.59,188.24,127.01,199.58,514.83,Single-ply,SBD,M
Boys,67.13,6,Phong Tran,Rockport-Fulton,65.59,190.51,111.13,190.51,492.15,Single-ply,SBD,M
Boys,67.13,7,Jared Reilly,Corpus Christi Calallen,66.22,170.1,92.99,188.24,451.32,Single-ply,SBD,M
Boys,67.13,8,Josh Munoz,Beeville Jones,66.77,149.69,108.86,165.56,424.11,Single-ply,SBD,M
Boys,67.13,9,Tony Vivone,Gregory-Portland,66.32,156.49,77.11,165.56,399.16,Single-ply,SBD,M
Boys,67.13,10,Dillon Torres,Beeville Jones,63.05,140.61,81.65,167.83,390.09,Single-ply,SBD,M
Boys,67.13,11,Austin Castillo,Corpus Christi Calallen,66.68,133.81,81.65,156.49,371.95,Single-ply,SBD,M
Boys,67.13,12,Michael Garcia,Alice,66.86,142.88,70.31,156.49,369.68,Single-ply,SBD,M
Boys,67.13,13,Josh Stich,Corpus Christi Tuloso-Midway,60.78,131.54,81.65,138.35,351.53,Single-ply,SBD,M
Boys,67.13,14,Lorenzo Landin,Gregory-Portland,65.95,117.93,72.57,136.08,326.59,Single-ply,SBD,M
Boys,67.13,15,Balta Ramirez,San Diego,63.23,124.74,65.77,127.01,317.51,Single-ply,SBD,M
Boys,67.13,16,Kyle Halderman,Gregory-Portland,63.05,102.06,74.84,136.08,312.98,Single-ply,SBD,M
Boys,67.13,17,Tyler Pastrano,San Diego,62.23,113.4,68.04,113.4,294.84,Single-ply,SBD,M
Boys,67.13,DQ,Dan Zamora,Seguin,63.87,151.95,,,,Single-ply,SBD,M
Boys,74.84,1,Zach Garza,Corpus Christi Calallen,74.48,263.08,145.15,267.62,675.85,Single-ply,SBD,M
Boys,74.84,2,Jermiah Puentes,Beeville Jones,73.57,217.72,124.74,224.53,566.99,Single-ply,SBD,M
Boys,74.84,3,Ryan Torres,Gregory-Portland,74.48,204.12,136.08,213.19,553.38,Single-ply,SBD,M
Boys,74.84,4,Marty Saenz,San Diego,74.48,195.04,124.74,231.33,551.11,Single-ply,SBD,M
Boys,74.84,5,Brandon Castillo,Corpus Christi Calallen,73.48,197.31,124.74,226.8,548.85,Single-ply,SBD,M
Boys,74.84,6,Javi Rojas,Kingsville King,74.84,204.12,113.4,219.99,537.51,Single-ply,SBD,M
Boys,74.84,7,Adam Guerrero #1,George West,69.85,226.8,108.86,192.78,528.44,Single-ply,SBD,M
Boys,74.84,8,Andy Mohl,Corpus Christi Tuloso-Midway,71.49,192.78,129.27,183.7,505.76,Single-ply,SBD,M
Boys,74.84,9,Devin Lanier,Gregory-Portland,74.21,199.58,104.33,199.58,503.49,Single-ply,SBD,M
Boys,74.84,10,Robert Leal,Corpus Christi Tuloso-Midway,73.57,181.44,102.06,179.17,462.66,Single-ply,SBD,M
Boys,74.84,11,Jordan Boone,Kingsville King,73.94,151.95,104.33,188.24,444.52,Single-ply,SBD,M
Boys,74.84,12,Austin Lofthouse,Corpus Christi Tuloso-Midway,71.76,158.76,90.72,183.7,433.18,Single-ply,SBD,M
Boys,74.84,13,Christian Diaz,Ingleside,72.48,161.03,102.06,170.1,433.18,Single-ply,SBD,M
Boys,74.84,14,Beto Chavarria,Alice,68.04,158.76,92.99,156.49,408.23,Single-ply,SBD,M
Boys,74.84,15,Robert Moctezuma,San Diego,74.39,154.22,92.99,149.69,396.89,Single-ply,SBD,M
Boys,74.84,16,Russell Hinojosa,Beeville Jones,68.67,147.42,90.72,138.35,376.48,Single-ply,SBD,M
Boys,74.84,17,Jose Gonzalez #15,Alice,72.21,142.88,74.84,158.76,376.48,Single-ply,SBD,M
Boys,74.84,18,Pedro Garcia,Corpus Christi Tuloso-Midway,74.03,127.01,77.11,138.35,342.46,Single-ply,SBD,M
Boys,74.84,19,Taylor Schwartz,Corpus Christi Calallen,72.94,102.06,68.04,120.2,290.3,Single-ply,SBD,M
Boys,74.84,20,Justin Sobezak,Corpus Christi Tuloso-Midway,68.95,83.91,56.7,124.74,265.35,Single-ply,SBD,M
Boys,74.84,DQ,Nick Fisher #2,Rockport-Fulton,72.48,192.78,,,,Single-ply,SBD,M
Boys,74.84,DQ,Ricky de la Paz,San Diego,73.66,,,,,Single-ply,SBD,M
Boys,74.84,DQ,Roddi Pulido,Alice,73.75,111.13,,,,Single-ply,SBD,M
Boys,82.1,1,Raydell Perez,Ingleside,81.1,235.87,181.44,251.74,669.05,Single-ply,SBD,M
Boys,89.81,2,Gabriel Longoria,Corpus Christi Calallen,82.19,256.28,149.69,244.94,650.91,Single-ply,SBD,M
Boys,82.1,3,Justin Garcia,Alice,80.2,240.4,140.61,226.8,607.81,Single-ply,SBD,M
Boys,82.1,4,Cameron Handy,Corpus Christi Tuloso-Midway,81.19,219.99,129.27,210.92,560.19,Single-ply,SBD,M
Boys,82.1,5,Jacob Castillo,Alice,78.65,204.12,129.27,219.99,553.38,Single-ply,SBD,M
Boys,82.1,6,Alex Tanguma,Corpus Christi Calallen,82.1,185.97,124.74,199.58,510.29,Single-ply,SBD,M
Boys,82.1,7,Danny Snodgrass,Ingleside,81.01,188.24,124.74,179.17,492.15,Single-ply,SBD,M
Boys,82.1,8,Fabian Gonzales,Kingsville King,78.74,188.24,108.86,188.24,485.34,Single-ply,SBD,M
Boys,82.1,9,Andrew Reyes,Rockport-Fulton,80.2,185.97,95.25,195.04,476.27,Single-ply,SBD,M
Boys,89.81,10,Fernando Flores,Corpus Christi Tuloso-Midway,82.33,149.69,92.99,192.78,435.45,Single-ply,SBD,M
Boys,82.1,11,Shane DeLeon,Seguin,80.65,142.88,113.4,167.83,424.11,Single-ply,SBD,M
Boys,82.1,12,Alex Aguirre,Gregory-Portland,77.75,163.29,92.99,147.42,403.7,Single-ply,SBD,M
Boys,82.1,13,Riley Richardson,Gregory-Portland,77.02,122.47,72.57,154.22,349.27,Single-ply,SBD,M
Boys,82.1,14,David Morales,Robstown,78.47,122.47,83.91,142.88,349.27,Single-ply,SBD,M
Boys,82.1,DQ,Jose de la Rosa,Roma,80.83,,,,,Single-ply,SBD,M
Boys,89.81,1,Brandon Griffith,Port Lavaca Calhoun,87.45,244.94,172.37,238.14,655.44,Single-ply,SBD,M
Boys,89.81,2,Lazaro Smith,Beeville Jones,89.72,251.74,133.81,240.4,625.96,Single-ply,SBD,M
Boys,89.81,3,Allan Grove,Ingleside,88.81,244.94,149.69,226.8,621.42,Single-ply,SBD,M
Boys,89.81,4,Jose Saucedo,Port Lavaca Calhoun,85.28,238.14,149.69,208.65,596.47,Single-ply,SBD,M
Boys,89.81,5,Colton Williams,Port Lavaca Calhoun,88.36,238.14,129.27,226.8,594.21,Single-ply,SBD,M
Boys,89.81,6,Jesse Baker,Seguin,88.81,183.7,136.08,204.12,523.9,Single-ply,SBD,M
Boys,89.81,7,Josh Davis,Rockport-Fulton,86.45,183.7,113.4,215.46,512.56,Single-ply,SBD,M
Boys,89.81,8,Chris Castillo,Corpus Christi Tuloso-Midway,86.18,201.85,102.06,206.38,510.29,Single-ply,SBD,M
Boys,89.81,9,Cliff Salinas,Roma,88.09,172.37,108.86,206.38,487.61,Single-ply,SBD,M
Boys,89.81,10,Marco Balboa,Alice,88.36,179.17,108.86,192.78,480.81,Single-ply,SBD,M
Boys,89.81,11,Zach Leal,Robstown,87.45,163.29,113.4,174.63,451.32,Single-ply,SBD,M
Boys,89.81,12,Johnny Gutierrez,Alice,83.91,154.22,102.06,170.1,426.38,Single-ply,SBD,M
Boys,89.81,13,Ben Burkett,Gregory-Portland,84.01,154.22,88.45,158.76,401.43,Single-ply,SBD,M
Boys,89.81,14,Tony Zapata,Alice,88.99,142.88,81.65,158.76,383.29,Single-ply,SBD,M
Boys,89.81,15,Javier Reynaga,Corpus Christi Calallen,87.45,108.86,72.57,136.08,317.51,Single-ply,SBD,M
Boys,89.81,16,Justin Lucio,Gregory-Portland,85.73,86.18,63.5,111.13,260.82,Single-ply,SBD,M
Boys,89.81,DQ,Jesus Espinoza,Alice,82.55,226.8,,,,Single-ply,SBD,M
Boys,89.81,DQ,Levi Miller,Sinton,89.09,156.49,,,,Single-ply,SBD,M
Boys,89.81,DQ,Enrique Olachia,Port Lavaca Calhoun,86.27,,,,,Single-ply,SBD,M
Boys,99.79,1,Nathan Westbrook,Kingsville King,97.61,249.48,158.76,238.14,646.37,Single-ply,SBD,M
Boys,99.79,2,Andres Castellanos,Corpus Christi Tuloso-Midway,96.8,272.16,131.54,231.33,635.03,Single-ply,SBD,M
Boys,99.79,3,Tim Hicks,Port Lavaca Calhoun,99.06,242.67,149.69,219.99,612.35,Single-ply,SBD,M
Boys,99.79,4,Ivan Pina,Roma,96.52,219.99,129.27,215.46,564.72,Single-ply,SBD,M
Boys,99.79,5,Miles Dixon,Seguin,91.9,181.44,115.67,235.87,532.97,Single-ply,SBD,M
Boys,99.79,6,Israel Garcia,Kingsville King,97.34,204.12,115.67,199.58,519.36,Single-ply,SBD,M
Boys,99.79,7,Chris Carpenter #3,Seguin,93.44,195.04,127.01,192.78,514.83,Single-ply,SBD,M
Boys,99.79,8,Eric Carroll,Rockport-Fulton,97.43,185.97,124.74,190.51,501.22,Single-ply,SBD,M
Boys,99.79,9,Michael Wiser,Corpus Christi Calallen,95.8,170.1,113.4,210.92,494.42,Single-ply,SBD,M
Boys,99.79,10,Nick Trevino #2,Kingsville King,95.8,163.29,97.52,217.72,478.54,Single-ply,SBD,M
Boys,99.79,11,Jesse Gomez,Kingsville King,94.62,165.56,111.13,195.04,471.74,Single-ply,SBD,M
Boys,99.79,12,Bryan Chesser,George West,91.17,151.95,97.52,147.42,396.89,Single-ply,SBD,M
Boys,99.79,13,Nicholas Paredez,Robstown,98.16,176.9,83.91,154.22,415.04,Single-ply,SBD,M
Boys,99.79,DQ,Russell Sullivan,Corpus Christi Calallen,97.34,124.74,90.72,154.22,,Single-ply,SBD,M
Boys,99.79,DQ,Rene Luna III,Robstown,93.17,165.56,,,,Single-ply,SBD,M
Boys,99.79,DQ,Trumain Jenkins,Rockport-Fulton,95.53,,,,,Single-ply,SBD,M
Boys,99.79,DQ,Josh Perez,Sinton,96.98,165.56,,,,Single-ply,SBD,M
Boys,109.77,1,Lupe Briseno,Port Lavaca Calhoun,108.14,283.5,147.42,226.8,657.71,Single-ply,SBD,M
Boys,109.77,2,Eddie Hernandez,Ingleside,100.61,235.87,151.95,258.55,646.37,Single-ply,SBD,M
Boys,109.77,3,Cody Morris #3,Corpus Christi Calallen,102.24,240.4,124.74,235.87,601.01,Single-ply,SBD,M
Boys,109.77,4,Matt Salazar,Corpus Christi Tuloso-Midway,100.7,238.14,131.54,213.19,582.87,Single-ply,SBD,M
Boys,109.77,5,Frank Trevino,San Diego,105.96,231.33,124.74,217.72,573.79,Single-ply,SBD,M
Boys,109.77,6,Steven Chapa,Kingsville King,105.6,238.14,149.69,181.44,569.26,Single-ply,SBD,M
Boys,109.77,7,Chris Flores,Port Lavaca Calhoun,108.95,235.87,136.08,190.51,562.45,Single-ply,SBD,M
Boys,109.77,8,Justin Ybarra,Corpus Christi West Oso,109.13,240.4,113.4,190.51,544.31,Single-ply,SBD,M
Boys,109.77,9,Juan Saenz,Roma,107.59,231.33,115.67,195.04,542.04,Single-ply,SBD,M
Boys,109.77,10,Esteban Resendez,Alice,104.87,197.31,117.93,195.04,510.29,Single-ply,SBD,M
Boys,109.77,11,Joe Avitia,Ingleside,100.43,204.12,122.47,176.9,503.49,Single-ply,SBD,M
Boys,109.77,12,Jerry Ruiz,Gregory-Portland,105.78,192.78,108.86,199.58,501.22,Single-ply,SBD,M
Boys,109.77,13,Robert Cardenas,Corpus Christi Tuloso-Midway,102.97,192.78,122.47,181.44,496.68,Single-ply,SBD,M
Boys,109.77,14,Danny Cruz,Alice,106.59,183.7,115.67,195.04,494.42,Single-ply,SBD,M
Boys,109.77,15,Robert Botello,Corpus Christi Calallen,104.78,172.37,106.59,199.58,478.54,Single-ply,SBD,M
Boys,109.77,16,Matthew Moya,Corpus Christi West Oso,104.87,124.74,68.04,136.08,328.85,Single-ply,SBD,M
Boys,109.77,DQ,Harley Vickers,Alice,105.05,210.92,127.01,,,Single-ply,SBD,M
Boys,124.74,1,Albert Ureste,Port Lavaca Calhoun,123.47,285.76,167.83,240.4,694,Single-ply,SBD,M
Boys,124.74,2,Daniel Gonzalez,Robstown,120.11,204.12,136.08,226.8,566.99,Single-ply,SBD,M
Boys,124.74,3,Justin Hunter Trevino,Robstown,117.21,181.44,120.2,197.31,498.95,Single-ply,SBD,M
Boys,124.74,4,Arturo Valazquez,Roma,122.29,192.78,117.93,170.1,480.81,Single-ply,SBD,M
Boys,124.74+,1,Matt Jones #8,Ingleside,128.82,290.3,172.37,226.8,689.46,Single-ply,SBD,M
Boys,124.74+,2,Miguel Estrada,Rockport-Fulton,132.18,272.16,154.22,260.82,687.19,Single-ply,SBD,M
Boys,124.74+,3,Steven Flanigan,Ingleside,137.35,292.57,174.63,217.72,684.92,Single-ply,SBD,M
Boys,124.74+,4,Andrew Williams #6,Rockport-Fulton,149.14,244.94,149.69,208.65,603.28,Single-ply,SBD,M
Boys,124.74+,5,Dylan Strickland,Corpus Christi Calallen,128.19,215.46,136.08,238.14,589.67,Single-ply,SBD,M
Boys,124.74+,6,Cody Lee,Port Lavaca Calhoun,126.1,215.46,122.47,210.92,548.85,Single-ply,SBD,M
Boys,124.74+,7,Steven Rodriguez,Corpus Christi Calallen,129.91,231.33,124.74,192.78,548.85,Single-ply,SBD,M
Boys,124.74+,8,Ryan Gutierrez,Rockport-Fulton,130.27,195.04,111.13,158.76,464.93,Single-ply,SBD,M
Boys,124.74+,9,Sergio Garcia,Corpus Christi Calallen,131.36,190.51,95.25,156.49,442.25,Single-ply,SBD,M
Boys,124.74+,10,Arturo Pena,Robstown,151.23,163.29,97.52,136.08,396.89,Single-ply,SBD,M
Boys,124.74+,DQ,Federico Hernandez,Robstown,151.23,217.72,133.81,,,Single-ply,SBD,M
