Sex,Equipment,Division,WeightClassKg,Name,Age,BodyweightKg,Best3SquatKg,Best3BenchKg,Best3DeadliftKg,TotalKg,Event,BirthDate,Place
F,Wraps,Amateur Teen 18-19,52,Mackenzie Lambert,,50.71,47.63,31.75,74.84,154.22,SBD,,1
F,Wraps,Amateur Juniors 20-23,56,Victoria Hyson,,54.25,83.91,49.9,99.79,233.6,SBD,,1
F,Wraps,Pro Open,60,Amber Asbury,,59.96,99.79,45.36,108.86,254.01,SBD,,1
F,Raw,Amateur Masters 50-54,67.5,Kelly Murphy,,66.04,77.11,47.63,113.4,238.14,SBD,,1
F,Wraps,Amateur Masters 45-49,67.5,Liz Katrancha,,61.6,106.59,54.43,117.93,278.96,SBD,,1
F,Wraps,Pro Open,67.5,Nicole Simensky,,66.13,108.86,65.77,145.15,319.78,SBD,,1
F,Raw,Pro Open,75,Erica Miller,,73.48,147.42,77.11,174.63,399.16,SBD,,1
F,Wraps,Amateur Open,75,Ageela Semple,,73.39,129.27,63.5,136.08,328.85,SBD,,2
F,Wraps,Amateur Open,75,Meghan Bragers,,70.4,124.74,77.11,156.49,358.34,SBD,,1
F,Wraps,Military Amateur Open,75,Ageela Semple,,73.39,129.27,63.5,136.08,328.85,SBD,,1
F,Wraps,Police Amateur Open,75,Ageela Semple,,73.39,129.27,63.5,136.08,328.85,SBD,,1
F,Wraps,Pro Open,82.5,Kari DeShazo,,76.02,199.58,108.86,217.72,526.17,SBD,,1
F,Raw,Amateur Open,90,Calypso Moore,,85.09,115.67,65.77,147.42,328.85,SBD,,1
F,Wraps,Amateur Juniors 20-23,110,Alexia Ezibe,,102.15,210.92,83.91,213.19,508.02,SBD,,1
M,Wraps,Amateur Juniors 20-23,67.5,Aaron Best,,66.59,147.42,99.79,190.51,437.72,SBD,,1
M,Wraps,Amateur Teen 16-17,67.5,Brayden DiPaola,,66.95,170.1,88.45,192.78,451.32,SBD,,1
M,Wraps,Amateur Teen 18-19,67.5,Benjamin Vuckovich,,65.05,170.1,106.59,192.78,469.47,SBD,,1
M,Single-ply,Amateur Masters 55-59,67.5,Timothy Kingure,,66.68,192.78,92.99,172.37,458.13,SBD,,1
M,Raw,Amateur Juniors 20-23,75,Corey Katrancha,,74.39,176.9,113.4,195.04,485.34,SBD,,3
M,Raw,Amateur Juniors 20-23,75,Pierce B Gearhart,,73.21,192.78,122.47,215.46,530.7,SBD,,2
M,Raw,Amateur Juniors 20-23,75,Ivan Saldana,,70.4,210.92,120.2,265.35,596.47,SBD,,1
M,Raw,Amateur Open,75,Kristopher A Chalk,,72.39,154.22,117.93,185.97,458.13,SBD,,2
M,Raw,Amateur Open,75,Nicholas Tercek,,73.94,206.38,131.54,251.74,589.67,SBD,,1
M,Raw,Amateur Submasters 33-39,75,Nicholas Tercek,,73.94,206.38,131.54,251.74,589.67,SBD,,1
M,Raw,Military Amateur Juniors 20-23,75,Pierce B Gearhart,,73.21,192.78,122.47,215.46,530.7,SBD,,1
M,Wraps,Amateur Juniors 20-23,75,Chad Lyman,,74.39,156.49,90.72,206.38,453.59,SBD,,2
M,Wraps,Amateur Juniors 20-23,75,Matt Lupi,,73.57,183.7,120.2,192.78,496.68,SBD,,1
M,Raw,Amateur Masters 45-49,82.5,Glenn Katrancha,,81.19,145.15,88.45,163.29,396.89,SBD,,1
M,Wraps,Amateur Juniors 20-23,82.5,Logan Lachowitzer,,80.83,199.58,106.59,206.38,512.56,SBD,,2
M,Wraps,Amateur Juniors 20-23,82.5,Sean Anderson,,77.75,204.12,129.27,238.14,571.53,SBD,,1
M,Wraps,Amateur Open,82.5,Andy Vargas,,76.29,167.83,113.4,199.58,480.81,SBD,,2
M,Wraps,Amateur Open,82.5,Erik White,,79.29,251.74,145.15,244.94,641.83,SBD,,1
M,Wraps,Pro Juniors 20-23,82.5,Keith Lowery,,80.56,192.78,142.88,215.46,551.11,SBD,,1
M,Wraps,Amateur Teen 18-19,100,Ethan Cain,,96.16,,111.13,229.06,,SBD,,DQ
M,Raw,Police Amateur Open,82.5,Andrew Miller #14,,81.65,,,,,SBD,,DQ
M,Wraps,Amateur Teen 18-19,75,Andrew French #3,,74.3,,,,,SBD,,DQ
M,Raw,Amateur Submasters 33-39,75,Nicholas Tercek,,73.94,,,251.74,251.74,D,,2
M,Raw,Amateur Open,90,Joe Zambito,,87.72,185.97,120.2,219.99,526.17,SBD,,2
M,Raw,Amateur Open,90,Rick Kompf,,88.72,167.83,117.93,247.21,532.97,SBD,,1
M,Raw,Pro Juniors 20-23,90,Antonio Rivera,,88.9,226.8,195.04,229.06,650.91,SBD,,1
M,Raw,Pro Open,90,Juan Martinez,,89.9,260.82,199.58,238.14,698.53,SBD,,1
M,Wraps,Amateur Juniors 20-23,90,Richard Bromirski,,86.27,219.99,131.54,247.21,598.74,SBD,,1
M,Wraps,Amateur Masters 40-44,90,Bryan Martin,,89.72,192.78,151.95,244.94,589.67,SBD,,1
M,Wraps,Amateur Open,90,Kyle Knisely,,88.9,181.44,111.13,231.33,523.9,SBD,,2
M,Raw,Amateur Open,90,Connor Putz,,86.55,199.58,158.76,244.94,603.28,SBD,,1
M,Wraps,Pro Open,90,Jesse Hammond,,88.54,229.06,167.83,285.76,682.66,SBD,,2
M,Wraps,Pro Open,90,Brandon Densmore,,89.09,292.57,161.03,272.16,725.75,SBD,,1
M,Raw,Amateur Juniors 20-23,100,Ryan Jantzen,,94.08,183.7,129.27,208.65,521.63,SBD,,1
M,Raw,Pro Open,100,Jakub Grimek,,98.07,251.74,183.7,251.74,687.19,SBD,,1
M,Wraps,Amateur Open,100,Shane Wise,,98.88,215.46,147.42,222.26,585.13,SBD,,3
M,Raw,Amateur Open,100,Bobby Kelley,,98.61,226.8,142.88,274.42,644.1,SBD,,2
M,Wraps,Amateur Open,100,Richard Stover,,99.16,244.94,161.03,274.42,680.39,SBD,,1
M,Wraps,Military Amateur Open,100,Cyler Wedge,,98.88,183.7,147.42,238.14,569.26,SBD,,1
M,Wraps,Pro Open,100,François Gagné,,99.97,317.51,183.7,281.23,782.45,SBD,,1
M,Wraps,Pro Submasters 33-39,100,Ryan J Fissel,,93.71,167.83,,,,SBD,,DQ
M,Unlimited,Pro Open,100,Jonathan Idelson,,99.79,362.87,285.76,326.59,975.22,SBD,,1
M,Multi-ply,Pro Masters 45-49,110,Mark Landau,,109.13,294.84,165.56,238.14,698.53,SBD,,1
M,Raw,Amateur Open,110,Kevin Gardner,,104.05,176.9,117.93,204.12,498.95,SBD,,1
M,Raw,Pro Open,110,Scott A. Percy,,104.24,213.19,145.15,229.06,587.4,SBD,,1
M,Wraps,Amateur Masters 40-44,110,Frank D Agostino III,,108.86,244.94,181.44,231.33,657.71,SBD,,1
M,Wraps,Amateur Open,110,William Irwin,,108.14,285.76,165.56,281.23,732.55,SBD,,1
M,Wraps,Elite Open,110,Dominic Cino,,106.23,283.5,197.31,299.37,780.18,SBD,,1
M,Wraps,Military Amateur Open,110,Troy Borkowski,,109.32,204.12,136.08,215.46,555.65,SBD,,1
M,Wraps,Pro Open,110,Scott Williams #2,,105.23,238.14,156.49,278.96,673.58,SBD,,2
M,Wraps,Pro Open,110,Alex Aquila,,102.33,340.19,163.29,340.19,843.68,SBD,,1
M,Single-ply,Pro Masters 45-49,110,Tim Gale #1,,108.41,371.95,310.71,288.03,970.69,SBD,,1
M,Wraps,Amateur Juniors 20-23,125,Matthew Becker #1,,114.85,249.48,165.56,238.14,653.17,SBD,,1
M,Wraps,Amateur Masters 50-54,125,Paul Florio,,117.21,192.78,142.88,201.85,537.51,SBD,,1
M,Wraps,Amateur Open,140,Gerald Rogers,,136.98,276.69,174.63,256.28,707.6,SBD,,1
M,Wraps,Pro Teen 16-17,140,Noah Hardy #1,17,132.54,331.12,208.65,288.03,827.81,SBD,,1
M,Raw,Amateur Open,140+,Michael Shafer,,176.45,231.33,158.76,249.48,639.57,SBD,,1
M,Raw,Pro Open,100,Rick Espigh,,99.43,,,215.46,,BD,,DQ
M,Multi-ply,Amateur Masters 65-69,125,Marvin Smith #1,,117.57,,105.46,148.55,254.01,BD,,1
M,Raw,Amateur Teen 18-19,100,Noah Strine,,99.25,,192.78,,192.78,B,,1
M,Raw,Pro Masters 40-44,125,Daniel Parsons,,123.01,,193.91,,193.91,B,,1
M,Raw,Pro Open,140+,Kevin Pirri,,146.42,,258.55,,258.55,B,,1
M,Single-ply,Pro Open,140+,Jimmy Kolb,,142.25,,480.81,,480.81,B,,1
M,Single-ply,Amateur Masters 60-64,100,Randy C Fulk,,97.98,,,226.8,226.8,D,,1
M,Wraps,Pro Open,100,Tanner Johnson,,98.7,335.66,,319.78,,SBD,,DQ
M,Raw,Elite Open,110,Dominic Cino,,106.23,,,299.37,299.37,D,,1
