Division,WeightClassKg,Place,Name,Team,BodyweightKg,Best3SquatKg,Best3BenchKg,Best3DeadliftKg,TotalKg,Equipment,Event,Sex
Boys,51.71,1,Bryan Tran,Amarillo Highland Park,51.71,124.74,74.84,138.35,337.93,Single-ply,SBD,M
Boys,51.71,2,Vinny Meza,Bovina,51.26,117.93,77.11,127.01,322.05,Single-ply,SBD,M
Boys,51.71,3,Favian Castellanos,Sunray,50.35,120.2,68.04,131.54,319.78,Single-ply,SBD,M
Boys,51.71,4,Edwin Garcia,Friona,46.72,115.67,52.16,111.13,278.96,Single-ply,SBD,M
Boys,51.71,5,Ronnie Doty,Panhandle,50.8,102.06,56.7,115.67,274.42,Single-ply,SBD,M
Boys,51.71,6,Matthew Rodriguez,Amarillo Caprock,51.71,83.91,52.16,92.99,229.06,Single-ply,SBD,M
Boys,55.79,1,Dang Nguyen,Amarillo Highland Park,55.34,154.22,83.91,158.76,396.89,Single-ply,SBD,M
Boys,55.79,2,Hector Bustillos,Sunray,55.79,149.69,77.11,156.49,383.29,Single-ply,SBD,M
Boys,55.79,3,Justin Rocha,Friona,53.07,136.08,70.31,154.22,360.61,Single-ply,SBD,M
Boys,55.79,4,Juan Macias,Friona,55.79,140.61,68.04,145.15,353.8,Single-ply,SBD,M
Boys,55.79,5,Ray Jaramillo,Clarendon,52.62,124.74,74.84,138.35,337.93,Single-ply,SBD,M
Boys,55.79,6,Alex Lugo,Perryton,55.34,113.4,65.77,142.88,322.05,Single-ply,SBD,M
Boys,55.79,7,Juan Moreno,Amarillo Highland Park,55.79,106.59,68.04,127.01,301.64,Single-ply,SBD,M
Boys,55.79,8,Alex Mendiola,Amarillo Caprock,53.52,92.99,61.23,113.4,267.62,Single-ply,SBD,M
Boys,59.87,1,Ramiro Carmona,Bovina,59.87,154.22,68.04,165.56,387.82,Single-ply,SBD,M
Boys,59.87,2,Fernando Corpus,Amarillo Highland Park,57.61,140.61,79.38,154.22,374.21,Single-ply,SBD,M
Boys,59.87,3,Daniel Patterson #1,Sunray,59.87,136.08,74.84,142.88,353.8,Single-ply,SBD,M
Boys,59.87,4,Dalton Stang,Stinnett West Texas,58.06,129.27,72.57,140.61,342.46,Single-ply,SBD,M
Boys,59.87,5,Kaiden Summerville,Perryton,59.42,131.54,72.57,133.81,337.93,Single-ply,SBD,M
Boys,59.87,6,Clint Franks,Clarendon,59.87,108.86,81.65,117.93,308.44,Single-ply,SBD,M
Boys,59.87,7,Pedro Dominguez,Bovina,58.97,106.59,63.5,133.81,303.91,Single-ply,SBD,M
Boys,59.87,8,Alex Alcantar,Sunray,58.51,113.4,56.7,127.01,297.1,Single-ply,SBD,M
Boys,59.87,DQ,Vasha Sheriff,Amarillo Caprock,59.87,142.88,,,,Single-ply,SBD,M
Boys,67.13,1,Eddy Garcia,Friona,65.32,161.03,88.45,179.17,428.64,Single-ply,SBD,M
Boys,67.13,2,Fabian Bencomo,Dalhart,66.68,156.49,83.91,185.97,426.38,Single-ply,SBD,M
Boys,67.13,3,Joseph Jaramillo,Clarendon,63.5,149.69,88.45,163.29,401.43,Single-ply,SBD,M
Boys,67.13,4,Terrin Cambell,Amarillo Highland Park,60.78,142.88,81.65,138.35,362.87,Single-ply,SBD,M
Boys,67.13,5,Garrett Ely,Sunray,63.05,124.74,83.91,154.22,362.87,Single-ply,SBD,M
Boys,67.13,6,Francisco Borunda,Perryton,64.41,133.81,72.57,138.35,344.73,Single-ply,SBD,M
Boys,67.13,7,David Del Fraire,Perryton,66.22,122.47,68.04,142.88,333.39,Single-ply,SBD,M
Boys,67.13,8,Eric Velarde,Dumas,62.6,108.86,65.77,145.15,319.78,Single-ply,SBD,M
Boys,67.13,DQ,Isiah Perez,Dalhart,64.41,136.08,86.18,,,Single-ply,SBD,M
Boys,67.13,DQ,Nick Ramos,Dumas,67.13,142.88,,,,Single-ply,SBD,M
Boys,74.84,1,Jarric Weber,Borger,69.4,174.63,120.2,215.46,510.29,Single-ply,SBD,M
Boys,74.84,2,Franky Medina,Dalhart,71.85,192.78,111.13,190.51,494.42,Single-ply,SBD,M
Boys,74.84,3,Ryan Shemwell,Panhandle,71.67,170.1,111.13,167.83,449.06,Single-ply,SBD,M
Boys,74.84,4,Garron Weber,Borger,70.76,147.42,97.52,190.51,435.45,Single-ply,SBD,M
Boys,74.84,5,Tyrell Cambell,Amarillo Highland Park,73.94,147.42,90.72,195.04,433.18,Single-ply,SBD,M
Boys,74.84,6,Rene Rodriguez,Friona,74.39,161.03,102.06,167.83,430.91,Single-ply,SBD,M
Boys,74.84,7,Dustin Baumgardner,Panhandle,72.12,154.22,90.72,170.1,415.04,Single-ply,SBD,M
Boys,74.84,8,Devin Novak,Amarillo Highland Park,71.67,158.76,81.65,163.29,403.7,Single-ply,SBD,M
Boys,74.84,9,Caleb Estrada,Amarillo Caprock,70.31,154.22,88.45,158.76,401.43,Single-ply,SBD,M
Boys,74.84,10,Nathan Blackwell,Dumas,74.84,133.81,90.72,170.1,394.63,Single-ply,SBD,M
Boys,74.84,11,Steven Espino,Dumas,68.04,147.42,70.31,174.63,392.36,Single-ply,SBD,M
Boys,74.84,12,Ethan Hays,Panhandle,72.12,149.69,81.65,149.69,381.02,Single-ply,SBD,M
Boys,74.84,13,Jose Rocha,Friona,73.94,138.35,88.45,145.15,371.95,Single-ply,SBD,M
Boys,74.84,14,Manuel Grado,Friona,74.84,136.08,83.91,151.95,371.95,Single-ply,SBD,M
Boys,74.84,15,Mason Mercer,Panhandle,71.21,140.61,79.38,142.88,362.87,Single-ply,SBD,M
Boys,74.84,16,Blama Saryoung,Amarillo Caprock,69.85,129.27,77.11,142.88,349.27,Single-ply,SBD,M
Boys,74.84,17,Trey Gabehart,Dumas,74.84,102.06,92.99,147.42,342.46,Single-ply,SBD,M
Boys,74.84,18,Ethan Ballard,Clarendon,74.39,108.86,79.38,142.88,331.12,Single-ply,SBD,M
Boys,74.84,DQ,Maurice Coleman,Dalhart,67.59,156.49,72.57,,,Single-ply,SBD,M
Boys,82.1,1,Guillermo Davila,Dalhart,78.93,242.67,108.86,204.12,555.65,Single-ply,SBD,M
Boys,82.1,2,Michael Garcia,Friona,79.83,213.19,140.61,192.78,546.58,Single-ply,SBD,M
Boys,89.81,3,Alexis Mendoza,Sunray,82.28,210.92,111.13,217.72,539.77,Single-ply,SBD,M
Boys,82.1,4,Tyler Baker,Borger,78.47,181.44,117.93,181.44,480.81,Single-ply,SBD,M
Boys,82.1,5,Allen Cruz,Amarillo Highland Park,82.1,181.44,106.59,170.1,458.13,Single-ply,SBD,M
Boys,82.1,6,Trevor Sustatia,Dalhart,78.47,174.63,97.52,181.44,453.59,Single-ply,SBD,M
Boys,82.1,7,Shawn Stewart,Amarillo Caprock,81.19,158.76,108.86,181.44,449.06,Single-ply,SBD,M
Boys,82.1,8,Jonathon Anderson,Sunray,82.1,174.63,97.52,170.1,442.25,Single-ply,SBD,M
Boys,82.1,9,Jace Taylor,Stinnett West Texas,76.2,165.56,90.72,165.56,421.84,Single-ply,SBD,M
Boys,82.1,10,Jaime Cigarroa,Friona,80.29,149.69,86.18,165.56,401.43,Single-ply,SBD,M
Boys,82.1,11,Wesley Ward,Borger,80.29,147.42,81.65,170.1,399.16,Single-ply,SBD,M
Boys,82.1,12,Jose Rodriguez #5,Friona,78.02,151.95,86.18,151.95,390.09,Single-ply,SBD,M
Boys,82.1,13,Derek Ditto,Dumas,78.93,124.74,104.33,131.54,360.61,Single-ply,SBD,M
Boys,82.1,14,Miguel Olivas,Perryton,81.19,124.74,79.38,156.49,360.61,Single-ply,SBD,M
Boys,82.1,15,Jt Bennett,Stinnett West Texas,80.29,136.08,83.91,136.08,356.07,Single-ply,SBD,M
Boys,82.1,16,Issac Summerlin,Friona,75.75,136.08,63.5,142.88,342.46,Single-ply,SBD,M
Boys,82.1,17,Christopher Chavez #3,Friona,76.2,138.35,65.77,131.54,335.66,Single-ply,SBD,M
Boys,82.1,DQ,Dalten Luman,Panhandle,79.83,,,,,Single-ply,SBD,M
Boys,82.1,DQ,Dominique de la Rosa #1,Sunray,78.02,,,,,Single-ply,SBD,M
Boys,89.81,1,Miguel Rangel,Borger,86.18,213.19,124.74,213.19,551.11,Single-ply,SBD,M
Boys,89.81,2,Gabe Marquez,Dalhart,88.45,192.78,127.01,201.85,521.63,Single-ply,SBD,M
Boys,89.81,3,Cesar Calderon,Sunray,87.54,172.37,92.99,170.1,435.45,Single-ply,SBD,M
Boys,89.81,4,Aaron Arellanes,Dumas,83.01,140.61,97.52,158.76,396.89,Single-ply,SBD,M
Boys,89.81,5,Gage Alexander,Panhandle,85.73,136.08,79.38,158.76,374.21,Single-ply,SBD,M
Boys,89.81,6,Richard Garza,Dumas,83.01,124.74,90.72,124.74,340.19,Single-ply,SBD,M
Boys,89.81,7,Patrick Cheney,Amarillo Highland Park,88,113.4,61.23,124.74,299.37,Single-ply,SBD,M
Boys,89.81,8,Joey Ramos,Dumas,83.91,113.4,58.97,122.47,294.84,Single-ply,SBD,M
Boys,89.81,DQ,Abel Palacios,Friona,83.46,174.63,,,,Single-ply,SBD,M
Boys,89.81,DQ,Austin Archuleta,Panhandle,84.37,170.1,86.18,,,Single-ply,SBD,M
Boys,89.81,DQ,Kendal Anders,Amarillo Highland Park,88.45,147.42,90.72,,,Single-ply,SBD,M
Boys,99.79,1,Javier Torres,Dalhart,99.79,215.46,124.74,213.19,553.38,Single-ply,SBD,M
Boys,99.79,2,Kevin Flores,Sunray,98.43,204.12,136.08,183.7,523.9,Single-ply,SBD,M
Boys,99.79,3,Jacob Harris,Dalhart,98.88,199.58,113.4,192.78,505.76,Single-ply,SBD,M
Boys,99.79,4,Evan Putman,White Deer,95.25,167.83,113.4,190.51,471.74,Single-ply,SBD,M
Boys,99.79,5,Cobee Harrison,Sunray,91.17,161.03,74.84,158.76,394.63,Single-ply,SBD,M
Boys,99.79,6,Julian Garcia,Bovina,95.71,145.15,83.91,138.35,367.41,Single-ply,SBD,M
Boys,99.79,7,Jesus Sanchez,Bovina,90.72,138.35,72.57,147.42,358.34,Single-ply,SBD,M
Boys,99.79,8,Hernan Torres,Dumas,99.34,108.86,88.45,158.76,356.07,Single-ply,SBD,M
Boys,99.79,9,Allen Hernandez,Bovina,91.63,72.57,45.36,133.81,251.74,Single-ply,SBD,M
Boys,109.77,1,Tyler Brewer,Dalhart,107.95,233.6,117.93,217.72,569.26,Single-ply,SBD,M
Boys,109.77,2,Freddy Martinez,Dumas,105.23,192.78,113.4,210.92,517.1,Single-ply,SBD,M
Boys,109.77,3,Juan Samarron,Friona,104.78,201.85,120.2,192.78,514.83,Single-ply,SBD,M
Boys,109.77,4,Talamantes Bruno,Dumas,106.59,199.58,102.06,190.51,492.15,Single-ply,SBD,M
Boys,109.77,5,Dakota McWhorter,Panhandle,106.14,185.97,115.67,179.17,480.81,Single-ply,SBD,M
Boys,109.77,6,Aaron Williams,Sunray,109.77,199.58,104.33,170.1,474,Single-ply,SBD,M
Boys,109.77,7,Jorge Sanchez,Dumas,109.77,149.69,115.67,183.7,449.06,Single-ply,SBD,M
Boys,109.77,8,Steve Holsey,Borger,108.41,176.9,77.11,174.63,428.64,Single-ply,SBD,M
Boys,109.77,9,Ever Regalado,Dumas,107.05,158.76,74.84,149.69,383.29,Single-ply,SBD,M
Boys,109.77,DQ,Tristan Bueker,Amarillo Caprock,105.69,,,,,Single-ply,SBD,M
Boys,124.74,1,Abayomi Salinas,Friona,111.13,272.16,131.54,235.87,639.57,Single-ply,SBD,M
Boys,124.74,2,Colton Jones,Borger,117.48,233.6,127.01,229.06,589.67,Single-ply,SBD,M
Boys,124.74,3,Marcus Smith,Amarillo Caprock,118.39,204.12,145.15,215.46,564.72,Single-ply,SBD,M
Boys,124.74,4,Camilo de la Rosa,Bovina,124.28,215.46,124.74,208.65,548.85,Single-ply,SBD,M
Boys,124.74,5,Anthony Anzuldua,Dalhart,120.2,204.12,129.27,204.12,537.51,Single-ply,SBD,M
Boys,124.74,6,Dalton Torres,Dalhart,119.29,192.78,102.06,204.12,498.95,Single-ply,SBD,M
Boys,124.74,7,Rudy Giron,Dumas,112.04,181.44,111.13,181.44,474,Single-ply,SBD,M
Boys,124.74,8,Rodrigo Calderon,Sunray,124.28,172.37,102.06,183.7,458.13,Single-ply,SBD,M
Boys,124.74,9,Damion Provincho,Borger,110.22,154.22,97.52,181.44,433.18,Single-ply,SBD,M
Boys,124.74,DQ,Andrew Smith #7,Panhandle,115.21,167.83,,,,Single-ply,SBD,M
Boys,124.74+,1,Edgar Guerrero,Friona,130.18,328.85,192.78,294.84,816.47,Single-ply,SBD,M
Boys,124.74+,2,Colby Roach,Panhandle,132.9,229.06,124.74,204.12,557.92,Single-ply,SBD,M
Boys,124.74+,3,Justin Barrera,Dalhart,126.1,219.99,102.06,208.65,530.7,Single-ply,SBD,M
Boys,124.74+,4,Casey Stewart,Dalhart,126.55,199.58,108.86,181.44,489.88,Single-ply,SBD,M
Boys,124.74+,5,Kyle Key,Dumas,128.37,165.56,90.72,147.42,403.7,Single-ply,SBD,M
Boys,,NS,Chistian Trejo,Dumas,,,,,,Single-ply,SBD,M
Boys,,NS,Jovan Acosta,Dumas,,,,,,Single-ply,SBD,M
Boys,,NS,Lionel Mbou,Dumas,,,,,,Single-ply,SBD,M
Boys,,NS,Christian Landeros,Dumas,,,,,,Single-ply,SBD,M
Boys,,NS,Andrew Rhodes,Dumas,,,,,,Single-ply,SBD,M
Boys,,NS,Miguel Baray,Dumas,,,,,,Single-ply,SBD,M
Boys,,NS,Luis Perez,Dumas,,,,,,Single-ply,SBD,M
Boys,,NS,David Reyes,Dumas,,,,,,Single-ply,SBD,M
Boys,,NS,Adalberto Rangel,Dumas,,,,,,Single-ply,SBD,M
Boys,,NS,Tucker Wise,Panhandle,,,,,,Single-ply,SBD,M
Boys,,NS,Brady Cooke,Panhandle,,,,,,Single-ply,SBD,M
Boys,,NS,Julio Sanches,Perryton,,,,,,Single-ply,SBD,M
Boys,,NS,Gerardo Tarango,Perryton,,,,,,Single-ply,SBD,M
Boys,,NS,Jose Carrillo,Perryton,,,,,,Single-ply,SBD,M
Boys,,NS,Jose Chavez,Perryton,,,,,,Single-ply,SBD,M
Boys,,NS,Antonio Covarrubias,Perryton,,,,,,Single-ply,SBD,M
Boys,,NS,Miguel Espino,Perryton,,,,,,Single-ply,SBD,M
Boys,,NS,Tyler Miller,Sunray,,,,,,Single-ply,SBD,M
Boys,,NS,Aldo Ramirez,Perryton,,,,,,Single-ply,SBD,M
Boys,,NS,Colten Brown,Stinnett West Texas,,,,,,Single-ply,SBD,M
Boys,,NS,Angel Luther,Perryton,,,,,,Single-ply,SBD,M
Boys,,NS,Aron Morales,Perryton,,,,,,Single-ply,SBD,M
Boys,,NS,Hulices Navarrete,Perryton,,,,,,Single-ply,SBD,M
Boys,,NS,Kordell Lawrence,Dalhart,,,,,,Single-ply,SBD,M
Boys,,NS,Obed Lujan,Dalhart,,,,,,Single-ply,SBD,M
Boys,,NS,Nick Shandle,Clarendon,,,,,,Single-ply,SBD,M
Boys,,NS,Efrain Martinez,Bovina,,,,,,Single-ply,SBD,M
Boys,,NS,Joel Salas,Bovina,,,,,,Single-ply,SBD,M
Boys,,NS,Bernie De La Rosa,Bovina,,,,,,Single-ply,SBD,M
Boys,,NS,Isreal Espinoza,Bovina,,,,,,Single-ply,SBD,M
Boys,,NS,Emilio Espinosa,Bovina,,,,,,Single-ply,SBD,M
Boys,,NS,Daniel Lara,Bovina,,,,,,Single-ply,SBD,M
Boys,,NS,Javier Gonzales,Borger,,,,,,Single-ply,SBD,M
Boys,,NS,Spencer Holsey,Borger,,,,,,Single-ply,SBD,M
Boys,,NS,Dontrea Butler,Borger,,,,,,Single-ply,SBD,M
Boys,,NS,Leonell Carrillo,Bovina,,,,,,Single-ply,SBD,M
Boys,,NS,Bryce Day,Borger,,,,,,Single-ply,SBD,M
Boys,,NS,Ezequil Porras,Borger,,,,,,Single-ply,SBD,M
Boys,,NS,Courtney Gravely,Amarillo Highland Park,,,,,,Single-ply,SBD,M
Boys,,NS,Marquis Zapata,Amarillo Caprock,,,,,,Single-ply,SBD,M
Boys,,NS,Deven Ovalle,Amarillo Caprock,,,,,,Single-ply,SBD,M
Boys,,NS,Michael Lundgreen,Amarillo Caprock,,,,,,Single-ply,SBD,M
Boys,,NS,Rosendo Hernandez,Amarillo Caprock,,,,,,Single-ply,SBD,M
Boys,,NS,Roman Angulano,Amarillo Caprock,,,,,,Single-ply,SBD,M
Boys,,NS,Nick Meza,Amarillo Caprock,,,,,,Single-ply,SBD,M
Boys,,NS,Dustin Thomas,White Deer,,,,,,Single-ply,SBD,M
Boys,,NS,Mario Lechuga,Sunray,,,,,,Single-ply,SBD,M
Boys,,NS,Jacob Miller,White Deer,,,,,,Single-ply,SBD,M
Boys,,NS,Taylor Patterson,White Deer,,,,,,Single-ply,SBD,M
Boys,,NS,Robert Quilimaco,White Deer,,,,,,Single-ply,SBD,M
Boys,,NS,Louis Chavez,White Deer,,,,,,Single-ply,SBD,M
