Division,WeightClassKg,Place,Name,Team,BodyweightKg,Best3SquatKg,Best3BenchKg,Best3DeadliftKg,TotalKg,Equipment,Event,Sex
Boys,51.71,1,Angel Garcia #6,Edinburg Idea College Prep,51.71,195.04,104.33,167.83,467.2,Single-ply,SBD,M
Boys,51.71,2,Everardo Garcia,Roma,51.62,167.83,86.18,174.63,428.64,Single-ply,SBD,M
Boys,51.71,3,John Ortega,Mercedes,46.81,151.95,88.45,149.69,390.09,Single-ply,SBD,M
Boys,51.71,4,Joey Rodriguez,Edinburg Idea College Prep,51.26,154.22,77.11,154.22,385.55,Single-ply,SBD,M
Boys,51.71,5,Fabian Garcia,Edinburg Idea College Prep,50.44,154.22,81.65,136.08,371.95,Single-ply,SBD,M
Boys,51.71,6,Tristan Villarreal,Donna North,51.35,117.93,79.38,129.27,326.59,Single-ply,SBD,M
Boys,51.71,7,Damian Gonzalez,Roma,50.98,138.35,81.65,149.69,369.68,Single-ply,SBD,M
Boys,51.71,8,Mario Perez,Weslaco,51.53,145.15,83.91,129.27,358.34,Single-ply,SBD,M
Boys,51.71,9,Max Barrera,PSJA,51.71,129.27,74.84,124.74,328.85,Single-ply,SBD,M
Boys,51.71,10,Juan Villareal,Edinburg North,51.71,92.99,83.91,124.74,301.64,Single-ply,SBD,M
Boys,51.71,11,Héctor Ramírez,Roma,48.26,97.52,52.16,108.86,258.55,Single-ply,SBD,M
Boys,51.71,12,Dustin Repass,Lyford,41.1,88.45,29.48,79.38,197.31,Single-ply,SBD,M
Boys,51.71,DQ,Fernando Gonzalez,McAllen Memorial,50.8,115.67,86.18,,,Single-ply,SBD,M
Boys,55.79,1,Justin Berner,Edinburg North,55.61,170.1,113.4,165.56,449.06,Single-ply,SBD,M
Boys,55.79,2,Kevin Trevino,McAllen Memorial,54.98,158.76,108.86,174.63,442.25,Single-ply,SBD,M
Boys,55.79,3,AJ Trevino,Edinburg,54.79,172.37,104.33,154.22,430.91,Single-ply,SBD,M
Boys,55.79,4,Albert Gonzalez,Pharr Valley View,55.79,163.29,88.45,163.29,415.04,Single-ply,SBD,M
Boys,55.79,5,Adrian Garcia,Edinburg Idea College Prep,53.52,158.76,92.99,161.03,412.77,Single-ply,SBD,M
Boys,55.79,6,Elijah Wheeler,Edinburg Idea College Prep,55.79,149.69,77.11,147.42,374.21,Single-ply,SBD,M
Boys,55.79,7,Richard Vasquez,Weslaco East,55.43,140.61,77.11,145.15,362.87,Single-ply,SBD,M
Boys,55.79,8,Mike Puente,PSJA Southwest,52.8,120.2,77.11,151.95,349.27,Single-ply,SBD,M
Boys,55.79,9,Jaryd Amaro,PSJA Memorial,54.98,133.81,72.57,140.61,347,Single-ply,SBD,M
Boys,55.79,10,Diego Esquivel,La Feria,55.79,129.27,77.11,138.35,344.73,Single-ply,SBD,M
Boys,55.79,11,Rolando Flores,Roma,52.53,133.81,68.04,131.54,333.39,Single-ply,SBD,M
Boys,55.79,12,Robert Menjiras,Pharr Valley View,55.79,97.52,61.23,124.74,283.5,Single-ply,SBD,M
Boys,55.79,13,David Garza,La Joya Juarez-Lincoln,53.61,113.4,54.43,113.4,281.23,Single-ply,SBD,M
Boys,59.87,1,Hugo Gomez,Edinburg North,59.69,181.44,108.86,185.97,476.27,Single-ply,SBD,M
Boys,59.87,2,Luis Sanchez,Pharr Valley View,59.87,181.44,113.4,181.44,476.27,Single-ply,SBD,M
Boys,59.87,3,Jacob Amaro,PSJA Memorial,59.6,179.17,104.33,183.7,467.2,Single-ply,SBD,M
Boys,59.87,4,Joel Casas,PSJA,59.87,179.17,108.86,176.9,464.93,Single-ply,SBD,M
Boys,59.87,5,Josh Gonzalez,Weslaco East,59.87,165.56,95.25,199.58,460.4,Single-ply,SBD,M
Boys,59.87,6,Fernando Martinez #2,Weslaco,59.69,170.1,102.06,176.9,449.06,Single-ply,SBD,M
Boys,59.87,7,Matthew Randall,Edinburg Quest College Prep,59.78,161.03,102.06,151.95,415.04,Single-ply,SBD,M
Boys,59.87,8,Jesus Rosillo,McAllen,59.6,161.03,92.99,158.76,412.77,Single-ply,SBD,M
Boys,59.87,9,Tyler McClaugherty,La Feria,57.42,149.69,65.77,136.08,351.53,Single-ply,SBD,M
Boys,59.87,10,Randall de Leon,Lyford,58.51,102.06,58.97,117.93,278.96,Single-ply,SBD,M
Boys,59.87,DQ,Valente Rosas,Lyford,56.88,113.4,56.7,,,Single-ply,SBD,M
Boys,59.87,DQ,Aaron Lozano,Edinburg Quest College Prep,59.78,174.63,,,,Single-ply,SBD,M
Boys,59.87,DQ,Danny Garcia,Edinburg Quest College Prep,58.79,,,,,Single-ply,SBD,M
Boys,67.13,1,Ricky Ortiz #1,Edcouch-Elsa,66.95,274.42,161.03,242.67,678.12,Single-ply,SBD,M
Boys,67.13,2,Marcos Chavez,Lyford,65.77,213.19,124.74,226.8,564.72,Single-ply,SBD,M
Boys,67.13,3,Tony Sauceda,Edinburg Economedes,60.78,201.85,136.08,208.65,546.58,Single-ply,SBD,M
Boys,67.13,4,Daniel Lozano,Weslaco,66.95,208.65,140.61,195.04,544.31,Single-ply,SBD,M
Boys,67.13,5,Andrew Nevarez,Edinburg Idea College Prep,66.95,206.38,97.52,183.7,487.61,Single-ply,SBD,M
Boys,67.13,6,Anthony de Leon,Edinburg Quest College Prep,66.22,167.83,111.13,197.31,476.27,Single-ply,SBD,M
Boys,67.13,7,Angel Vasquez,Edinburg Vela,66.04,167.83,115.67,183.7,467.2,Single-ply,SBD,M
Boys,67.13,8,Jacob Reyes,Edinburg Vela,63.23,172.37,113.4,170.1,455.86,Single-ply,SBD,M
Boys,67.13,9,Tony Torres,San Benito,62.51,176.9,92.99,161.03,430.91,Single-ply,SBD,M
Boys,67.13,10,Brian Garza,San Benito,65.14,147.42,97.52,147.42,392.36,Single-ply,SBD,M
Boys,67.13,11,Brandon Rodriguez #1,Edinburg Idea College Prep,66.13,145.15,88.45,154.22,387.82,Single-ply,SBD,M
Boys,67.13,12,Roger Flores,Roma,66.68,122.47,88.45,154.22,365.14,Single-ply,SBD,M
Boys,67.13,13,Robert Rivera,La Villa,64.23,142.88,74.84,136.08,353.8,Single-ply,SBD,M
Boys,67.13,14,Ramon Castro,Lyford,64.68,127.01,77.11,145.15,349.27,Single-ply,SBD,M
Boys,67.13,15,Mikey Guevarra,Edinburg North,64.32,120.2,70.31,151.95,342.46,Single-ply,SBD,M
Boys,67.13,16,Manny Mendoza,Donna,64.86,106.59,81.65,147.42,335.66,Single-ply,SBD,M
Boys,67.13,17,Marco Esparza,Hidalgo Early College,62.23,133.81,77.11,115.67,326.59,Single-ply,SBD,M
Boys,67.13,DQ,Armando Ramirez,Edinburg North,66.68,208.65,115.67,,,Single-ply,SBD,M
Boys,67.13,DQ,Julio Bautista,Edinburg Economedes,66.95,,,,,Single-ply,SBD,M
Boys,67.13,DQ,Josh Martinez,Hidalgo Early College,62.05,,97.52,,,Single-ply,SBD,M
Boys,67.13,DQ,Moses Olivarez,McAllen Memorial,65.95,233.6,117.93,,,Single-ply,SBD,M
Boys,67.13,DQ,Cristian Garcia #2,San Benito,62.96,206.38,111.13,,,Single-ply,SBD,M
Boys,67.13,DQ,Robert Gomez,PSJA Memorial,67.13,167.83,104.33,,,Single-ply,SBD,M
Boys,74.84,1,Jorge Cavazos,Mercedes,74.21,235.87,140.61,222.26,598.74,Single-ply,SBD,M
Boys,74.84,2,Arath Martinez,Donna North,73.03,204.12,127.01,215.46,546.58,Single-ply,SBD,M
Boys,74.84,3,Espinosa Carlos,Weslaco East,74.84,206.38,142.88,188.24,537.51,Single-ply,SBD,M
Boys,74.84,4,Matthew Alvarado,Weslaco,72.21,206.38,131.54,185.97,523.9,Single-ply,SBD,M
Boys,74.84,5,Christian Avila,Weslaco East,71.76,199.58,117.93,204.12,521.63,Single-ply,SBD,M
Boys,74.84,6,Carlos Sanchez,San Benito,74.21,197.31,129.27,192.78,519.36,Single-ply,SBD,M
Boys,74.84,7,Alex Cortez,Edinburg North,74.57,195.04,111.13,206.38,512.56,Single-ply,SBD,M
Boys,74.84,8,Andrew Solis,Edinburg Vela,74.84,190.51,133.81,188.24,512.56,Single-ply,SBD,M
Boys,74.84,9,Devin Alvardo,McAllen Memorial,74.48,195.04,113.4,188.24,496.68,Single-ply,SBD,M
Boys,74.84,10,Troy de la Garza,La Feria,73.48,172.37,120.2,192.78,485.34,Single-ply,SBD,M
Boys,74.84,11,Damian Gutierrez,Roma,73.94,172.37,122.47,190.51,485.34,Single-ply,SBD,M
Boys,74.84,12,Jaime Garcia #3,Mercedes,74.48,192.78,102.06,183.7,478.54,Single-ply,SBD,M
Boys,74.84,13,Juan Jaramillo,Donna North,74.84,190.51,102.06,183.7,476.27,Single-ply,SBD,M
Boys,74.84,14,Alex Benavidas,Donna North,73.66,179.17,104.33,165.56,449.06,Single-ply,SBD,M
Boys,74.84,15,Jose Soto,Pharr Valley View,73.62,176.9,92.99,174.63,444.52,Single-ply,SBD,M
Boys,74.84,16,Christopher Palomo,McAllen,74.12,163.29,99.79,176.9,439.98,Single-ply,SBD,M
Boys,74.84,17,Luis Cedillo,Donna,73.94,167.83,77.11,170.1,415.04,Single-ply,SBD,M
Boys,74.84,18,Brandon Adame,Mercedes,70.49,158.76,88.45,165.56,412.77,Single-ply,SBD,M
Boys,74.84,19,Adam Alvardo,McAllen Rowe,67.59,154.22,90.72,163.29,408.23,Single-ply,SBD,M
Boys,74.84,20,Michael Zamora,Pharr Valley View,69.22,145.15,68.04,165.56,378.75,Single-ply,SBD,M
Boys,74.84,21,David Quintanilla,PSJA Memorial,71.4,133.81,79.38,149.69,362.87,Single-ply,SBD,M
Boys,74.84,DQ,Isaac Galvan,Weslaco East,68.86,147.42,113.4,,,Single-ply,SBD,M
Boys,74.84,DQ,Joey Colunga,Mercedes,72.03,219.99,,,,Single-ply,SBD,M
Boys,74.84,DQ,Adam Walle,Edcouch-Elsa,74.84,244.94,151.95,,,Single-ply,SBD,M
Boys,74.84,DQ,Marcus Flores,McAllen,73.57,163.29,79.38,,,Single-ply,SBD,M
Boys,82.1,1,Franklin Arellano,McAllen,79.92,235.87,145.15,244.94,625.96,Single-ply,SBD,M
Boys,82.1,2,Jose Guzman,Donna,81.37,244.94,136.08,242.67,623.69,Single-ply,SBD,M
Boys,82.1,3,Frank Moreno,Lyford,81.65,233.6,129.27,247.21,610.08,Single-ply,SBD,M
Boys,82.1,4,Behiran Calderini,Edinburg North,81.56,240.4,133.81,233.6,607.81,Single-ply,SBD,M
Boys,82.1,5,Julian Hernandez,McAllen Memorial,81.28,235.87,147.42,204.12,587.4,Single-ply,SBD,M
Boys,82.1,6,Jason Navarro,San Benito,78.47,226.8,133.81,219.99,580.6,Single-ply,SBD,M
Boys,82.1,7,JC Pedraza,Weslaco,82.1,235.87,145.15,183.7,564.72,Single-ply,SBD,M
Boys,82.1,8,Perez Sam,Edinburg Vela,77.66,219.99,142.88,183.7,546.58,Single-ply,SBD,M
Boys,82.1,9,Christian Cortina,Donna North,81.65,204.12,113.4,229.06,546.58,Single-ply,SBD,M
Boys,82.1,10,Diaz Sadge,McAllen,80.2,204.12,127.01,204.12,535.24,Single-ply,SBD,M
Boys,82.1,11,Daniel García,San Benito,77.75,204.12,138.35,185.97,528.44,Single-ply,SBD,M
Boys,82.1,12,Miguel Reyes,Donna,76.11,244.94,92.99,188.24,526.17,Single-ply,SBD,M
Boys,82.1,13,James Champion,Edinburg,80.47,185.97,147.42,188.24,521.63,Single-ply,SBD,M
Boys,82.1,14,Jaime Montoya,Lyford,81.92,206.38,104.33,195.04,505.76,Single-ply,SBD,M
Boys,82.1,15,Ruben Chavero,Donna,80.29,183.7,124.74,183.7,492.15,Single-ply,SBD,M
Boys,82.1,16,Julian Trevino,Edinburg Vela,77.93,188.24,124.74,174.63,487.61,Single-ply,SBD,M
Boys,82.1,17,Roland Briseno,McAllen,79.56,190.51,124.74,170.1,485.34,Single-ply,SBD,M
Boys,82.1,18,David Saldana,McAllen Rowe,79.2,163.29,113.4,190.51,467.2,Single-ply,SBD,M
Boys,82.1,DQ,Juan Rojas,Donna,80.56,,,,,Single-ply,SBD,M
Boys,82.1,DQ,Jacob Perez #4,Edcouch-Elsa,81.1,226.8,,,,Single-ply,SBD,M
Boys,82.1,DQ,Simon Fernandez,Pharr Valley View,81.87,,,,,Single-ply,SBD,M
Boys,82.1,DQ,Roger Juarez,PSJA,81.83,,,,,Single-ply,SBD,M
Boys,82.1,DQ,John Contreras,La Villa,81.28,,,,,Single-ply,SBD,M
Boys,89.81,1,Ernesto Preciado,Pharr Valley View,89.81,258.55,163.29,233.6,655.44,Single-ply,SBD,M
Boys,89.81,2,Rene Cantu,Edinburg Vela,88.63,272.16,145.15,219.99,637.3,Single-ply,SBD,M
Boys,89.81,3,Hector Palencia,Donna,88.81,276.69,124.74,217.72,619.15,Single-ply,SBD,M
Boys,89.81,4,Ryan Catillo,San Benito,89.36,238.14,133.81,242.67,614.62,Single-ply,SBD,M
Boys,89.81,5,Zeke Lozano,Weslaco,87.82,240.4,149.69,204.12,594.21,Single-ply,SBD,M
Boys,89.81,6,Matt Vela,Weslaco East,86,229.06,138.35,222.26,589.67,Single-ply,SBD,M
Boys,89.81,7,Eddie Hinojosa,Edinburg Vela,87.09,224.53,129.27,222.26,576.06,Single-ply,SBD,M
Boys,89.81,8,Carlo Vargas,Donna North,89.36,235.87,117.93,222.26,576.06,Single-ply,SBD,M
Boys,89.81,9,Michael Morales,McAllen Rowe,84.91,210.92,124.74,199.58,535.24,Single-ply,SBD,M
Boys,89.81,10,William Corkill,San Benito,89.63,204.12,115.67,213.19,532.97,Single-ply,SBD,M
Boys,89.81,11,Luis Venecia,La Joya Juarez-Lincoln,85.91,195.04,108.86,195.04,498.95,Single-ply,SBD,M
Boys,89.81,12,Brando Galvan,Weslaco East,85.28,183.7,115.67,195.04,494.42,Single-ply,SBD,M
Boys,89.81,13,Tony Gil,Edcouch-Elsa,88.99,192.78,127.01,174.63,494.42,Single-ply,SBD,M
Boys,89.81,14,Jose Gandaria,Donna North,89.81,204.12,104.33,179.17,487.61,Single-ply,SBD,M
Boys,89.81,15,Kristopher Camacho,Pharr Valley View,85.55,158.76,117.93,195.04,471.74,Single-ply,SBD,M
Boys,89.81,16,Jose Lugo Lugo,La Feria,89.27,183.7,111.13,174.63,469.47,Single-ply,SBD,M
Boys,89.81,17,Luis Avila,Roma,88.63,199.58,99.79,161.03,460.4,Single-ply,SBD,M
Boys,89.81,18,Rowdy Pena,Mercedes,82.74,83.91,52.16,70.31,206.38,Single-ply,SBD,M
Boys,89.81,DQ,Aaron Gonzalez,McAllen Rowe,89.27,,,,,Single-ply,SBD,M
Boys,89.81,DQ,Edgar Castillo,McAllen Rowe,83.73,204.12,,,,Single-ply,SBD,M
Boys,89.81,DQ,Gabriel Salinas,Donna,88.45,,,,,Single-ply,SBD,M
Boys,89.81,DQ,Nathan Morales,La Feria,89.72,174.63,115.67,,,Single-ply,SBD,M
Boys,89.81,DQ,Luis Mireles,PSJA Memorial,88.45,185.97,113.4,,,Single-ply,SBD,M
Boys,89.81,DQ,Erick Rangel,La Feria,84.91,,,,,Single-ply,SBD,M
Boys,99.79,1,Joel Garcia,Pharr Valley View,97.34,272.16,129.27,272.16,673.58,Single-ply,SBD,M
Boys,99.79,2,Jose Rangel,La Villa,99.06,276.69,140.61,240.4,657.71,Single-ply,SBD,M
Boys,99.79,3,Sebastian Buitron,McAllen,99.61,265.35,142.88,249.48,657.71,Single-ply,SBD,M
Boys,99.79,4,Nate Vallejo,Edcouch-Elsa,99.79,254.01,161.03,240.4,655.44,Single-ply,SBD,M
Boys,99.79,5,Eddie Hernandez,La Joya Juarez-Lincoln,97.34,258.55,147.42,244.94,650.91,Single-ply,SBD,M
Boys,99.79,6,Lazaro Patian,Edinburg,98.25,269.89,158.76,219.99,648.64,Single-ply,SBD,M
Boys,99.79,7,Arturo Alvarado,La Feria,98.88,260.82,161.03,215.46,637.3,Single-ply,SBD,M
Boys,99.79,8,Cris Maldonado,Edinburg Economedes,94.53,258.55,142.88,229.06,630.49,Single-ply,SBD,M
Boys,99.79,9,Issac Rangel,Donna,99.79,272.16,136.08,217.72,625.96,Single-ply,SBD,M
Boys,99.79,10,Mario Reyna,Edinburg Economedes,97.89,254.01,142.88,215.46,612.35,Single-ply,SBD,M
Boys,99.79,11,Axel Hernandez #1,McAllen Memorial,93.71,226.8,129.27,240.4,596.47,Single-ply,SBD,M
Boys,99.79,12,Freddy Lozano,La Feria,93.17,226.8,142.88,195.04,564.72,Single-ply,SBD,M
Boys,99.79,13,Fernando Reyna,Donna North,99.34,226.8,124.74,210.92,562.45,Single-ply,SBD,M
Boys,99.79,14,Emmanuel Cepeda,Lyford,98.25,235.87,115.67,197.31,548.85,Single-ply,SBD,M
Boys,99.79,15,Fabian Martinez,Donna North,97.61,226.8,115.67,201.85,544.31,Single-ply,SBD,M
Boys,99.79,16,Ricardo Saenz,PSJA,96.07,210.92,127.01,179.17,517.1,Single-ply,SBD,M
Boys,99.79,17,Pablo Rodriguez,Edinburg North,98.79,192.78,133.81,190.51,517.1,Single-ply,SBD,M
Boys,99.79,18,Felix Vargas,Weslaco East,97.07,210.92,136.08,161.03,508.02,Single-ply,SBD,M
Boys,99.79,19,Rey Luevano,Edinburg North,93.44,161.03,120.2,195.04,476.27,Single-ply,SBD,M
Boys,99.79,20,Arturo Pena,Edinburg Vela,92.99,238.14,147.42,,385.55,Single-ply,SB,M
Boys,99.79,21,Henry Rocha,Lyford,94.26,102.06,63.5,136.08,301.64,Single-ply,SBD,M
Boys,99.79,DQ,Rudy De Leon,La Feria,97.25,129.27,,,,Single-ply,SBD,M
Boys,99.79,DQ,Juan Carsarez,Edinburg North,95.25,,,,,Single-ply,SBD,M
Boys,99.79,DQ,Juan Flores,PSJA,96.34,272.16,,,,Single-ply,SBD,M
Boys,99.79,DQ,Joey Castillo,PSJA Southwest,97.79,,,,,Single-ply,SBD,M
Boys,109.77,1,Cody Alvarado,Edcouch-Elsa,109.77,317.51,204.12,272.16,793.79,Single-ply,SBD,M
Boys,109.77,2,Bryan Mosqueda,PSJA Southwest,107.77,258.55,170.1,258.55,687.19,Single-ply,SBD,M
Boys,109.77,3,Oscar Juarez,Edinburg,107.5,283.5,192.78,208.65,684.92,Single-ply,SBD,M
Boys,109.77,4,Juan Martinez,La Joya Juarez-Lincoln,108.77,267.62,156.49,256.28,680.39,Single-ply,SBD,M
Boys,109.77,5,Jesus Proa,La Joya Juarez-Lincoln,106.14,272.16,170.1,226.8,669.05,Single-ply,SBD,M
Boys,109.77,6,Enrique Guajardo,Pharr Valley View,107.95,263.08,145.15,226.8,635.03,Single-ply,SBD,M
Boys,109.77,7,Jose Ramirez #11,La Villa,107.41,294.84,167.83,181.44,644.1,Single-ply,SBD,M
Boys,109.77,8,Caleb Longoria,PSJA Southwest,108.5,233.6,138.35,222.26,594.21,Single-ply,SBD,M
Boys,109.77,9,Cordell Cabrera,Edcouch-Elsa,108.86,233.6,142.88,204.12,580.6,Single-ply,SBD,M
Boys,109.77,10,Israel Monsivais,La Joya Juarez-Lincoln,108.32,226.8,124.74,226.8,578.33,Single-ply,SBD,M
Boys,109.77,11,Jacob Flores,PSJA,106.68,229.06,145.15,192.78,566.99,Single-ply,SBD,M
Boys,109.77,12,Justin Torres,McAllen Rowe,101.88,208.65,113.4,229.06,551.11,Single-ply,SBD,M
Boys,109.77,13,Laurencio Lopez,Roma,105.14,201.85,115.67,199.58,517.1,Single-ply,SBD,M
Boys,109.77,14,Diego Montoya,Roma,109.77,210.92,129.27,172.37,512.56,Single-ply,SBD,M
Boys,109.77,15,Enrique Avila,Weslaco East,102.42,204.12,113.4,190.51,508.02,Single-ply,SBD,M
Boys,109.77,16,Moises Vazaldua,PSJA,104.33,204.12,106.59,179.17,489.88,Single-ply,SBD,M
Boys,109.77,17,Antonio Moreno,Roma,107.14,170.1,95.25,142.88,408.23,Single-ply,SBD,M
Boys,109.77,DQ,JJ Barrientes,PSJA,106.96,235.87,,,,Single-ply,SBD,M
Boys,109.77,DQ,Angel Guiterrez,Pharr Valley View,105.23,,,,,Single-ply,SBD,M
Boys,109.77,DQ,Ramon Cuellar,Pharr Valley View,104.33,,,,,Single-ply,SBD,M
Boys,109.77,DQ,JR Salinas,Mercedes,106.68,256.28,,,,Single-ply,SBD,M
Boys,124.74,1,Jorge Soto,Edcouch-Elsa,123.74,294.84,226.8,263.08,784.71,Single-ply,SBD,M
Boys,124.74,2,Aliver Chapa,La Joya Juarez-Lincoln,118.21,290.3,190.51,244.94,725.75,Single-ply,SBD,M
Boys,124.74,3,Imanol Rodriguez,Edcouch-Elsa,119.84,290.3,170.1,226.8,687.19,Single-ply,SBD,M
Boys,124.74,4,Caleb Zerrato,PSJA Memorial,110.68,281.23,156.49,231.33,669.05,Single-ply,SBD,M
Boys,124.74,5,Isai Martinez,Weslaco East,117.84,238.14,158.76,204.12,601.01,Single-ply,SBD,M
Boys,124.74,6,Rogelio Rada,Donna,110.31,226.8,136.08,235.87,598.74,Single-ply,SBD,M
Boys,124.74,7,Raul Martinez,Weslaco,118.02,240.4,151.95,201.85,594.21,Single-ply,SBD,M
Boys,124.74,8,David Garza,Edinburg Vela,116.94,229.06,133.81,229.06,591.94,Single-ply,SBD,M
Boys,124.74,9,Carlos Garza,Roma,114.85,197.31,151.95,183.7,532.97,Single-ply,SBD,M
Boys,124.74,10,Osiel Alonso,La Joya Juarez-Lincoln,113.04,199.58,136.08,190.51,526.17,Single-ply,SBD,M
Boys,124.74,11,Jesse Garza,McAllen Rowe,114.31,185.97,131.54,208.65,526.17,Single-ply,SBD,M
Boys,124.74,12,Kevin Lopez,PSJA Memorial,113.67,192.78,122.47,167.83,483.08,Single-ply,SBD,M
Boys,124.74,13,Contreras Austin,Lyford,120.84,197.31,92.99,183.7,474,Single-ply,SBD,M
Boys,124.74,14,Albert Torres,McAllen Rowe,117.57,197.31,106.59,165.56,469.47,Single-ply,SBD,M
Boys,124.74,15,Esia Reyes,La Feria,112.04,181.44,111.13,174.63,467.2,Single-ply,SBD,M
Boys,124.74,16,Aalok Zimmerman,McAllen Rowe,122.56,188.24,108.86,156.49,453.59,Single-ply,SBD,M
Boys,124.74,DQ,Jerry Jasso,Mercedes,110.77,,,,,Single-ply,SBD,M
Boys,124.74,DQ,Jarek Gonzalez,Hidalgo Early College,115.67,,,,,Single-ply,SBD,M
Boys,124.74,DQ,Leeroy Carrizales,PSJA Memorial,123.56,285.76,142.88,,,Single-ply,SBD,M
Boys,124.74,DQ,Austin Cardenas,Weslaco,122.56,281.23,190.51,,,Single-ply,SBD,M
Boys,124.74+,1,Arturo Ochoa,McAllen,136.8,278.96,199.58,238.14,716.68,Single-ply,SBD,M
Boys,124.74+,2,Jose Tovar,PSJA Memorial,133.08,283.5,204.12,197.31,684.92,Single-ply,SBD,M
Boys,124.74+,3,Danny Melendez,Mercedes,124.83,274.42,149.69,242.67,666.78,Single-ply,SBD,M
Boys,124.74+,4,Sergio Reyna,McAllen Memorial,124.87,272.16,165.56,219.99,657.71,Single-ply,SBD,M
Boys,124.74+,5,Bobby Gonzalez,Edcouch-Elsa,128.73,260.82,161.03,215.46,637.3,Single-ply,SBD,M
Boys,124.74+,6,Ivan Tejada,La Feria,129.91,260.82,124.74,206.38,591.94,Single-ply,SBD,M
Boys,124.74+,7,Jacob Mata,McAllen Rowe,148.78,204.12,147.42,185.97,537.51,Single-ply,SBD,M
Boys,124.74+,8,Tristan Rosales,La Feria,130.18,219.99,120.2,181.44,521.63,Single-ply,SBD,M
Boys,124.74+,9,Albert Jackson,PSJA,136.62,204.12,122.47,188.24,514.83,Single-ply,SBD,M
Boys,124.74+,DQ,Justin Delgado,PSJA Memorial,126.01,,,,,Single-ply,SBD,M
Boys,124.74+,DQ,Aubrey Elizondo,Mercedes,128.55,281.23,156.49,,,Single-ply,SBD,M
Boys,124.74+,DQ,Gerardo Lopez,McAllen,134.9,299.37,199.58,,,Single-ply,SBD,M
Boys,124.74+,DQ,Napo Garza,Hidalgo Early College,158.76,238.14,161.03,,,Single-ply,SBD,M
Boys,124.74+,DQ,Josue Vaquera,PSJA Memorial,150.14,,,,,Single-ply,SBD,M
Boys,124.74+,DQ,David Chapa,PSJA,143.61,,,,,Single-ply,SBD,M
Boys,,NS,Enoch Solis,Edinburg Economedes,,,,,,Single-ply,SBD,M
Boys,,NS,Justin Medina,Edinburg Economedes,,,,,,Single-ply,SBD,M
Boys,,NS,Marcos Garza,Edinburg Economedes,,,,,,Single-ply,SBD,M
Boys,,NS,Esteban Guerrero,Donna North,,,,,,Single-ply,SBD,M
