Division,WeightClassKg,Place,Name,Team,BodyweightKg,Best3SquatKg,Best3BenchKg,Best3DeadliftKg,TotalKg,Equipment,Event,Sex
Boys,51.71,1,Robert Ramos,Corpus Christi Tuloso-Midway,49.9,129.27,61.23,124.74,315.25,Single-ply,SBD,M
Boys,51.71,2,Jeremiah Jimenez,Lytle,48.53,111.13,61.23,129.27,301.64,Single-ply,SBD,M
Boys,51.71,3,Mark Livesay,Floresville,47.99,95.25,47.63,106.59,249.48,Single-ply,SBD,M
Boys,51.71,DQ,Mariano Arreola,Center Point,51.71,,,,,Single-ply,SBD,M
Boys,55.79,1,John Guillen,Lytle,55.7,147.42,97.52,154.22,399.16,Single-ply,SBD,M
Boys,55.79,2,Josh Lomas,Crystal City,55.7,142.88,86.18,158.76,387.82,Single-ply,SBD,M
Boys,55.79,3,Sid Alcoser,Somerset,52.44,106.59,47.63,113.4,267.62,Single-ply,SBD,M
Boys,55.79,4,Josh Barrera,Lytle,53.98,99.79,52.16,113.4,265.35,Single-ply,SBD,M
Boys,59.87,5,Oscar de Leon,Somerset,56.02,83.91,61.23,115.67,260.82,Single-ply,SBD,M
Boys,55.79,6,Xavier Huerta,Lytle,52.62,74.84,52.16,102.06,229.06,Single-ply,SBD,M
Boys,59.87,1,Caleb Gale,Somerset,59.06,163.29,102.06,181.44,446.79,Single-ply,SBD,M
Boys,59.87,2,Elvis Benitez,San Antonio East Central,57.79,129.27,99.79,136.08,365.14,Single-ply,SBD,M
Boys,59.87,3,Steven Garza,Crystal City,59.87,124.74,65.77,151.95,342.46,Single-ply,SBD,M
Boys,59.87,4,Kevin Avila,Lytle,59.87,120.2,63.5,136.08,319.78,Single-ply,SBD,M
Boys,59.87,5,Alan Patty,San Antonio East Central,59.51,122.47,58.97,122.47,303.91,Single-ply,SBD,M
Boys,59.87,6,Jose Flores #3,San Antonio Kennedy,56.88,86.18,68.04,117.93,272.16,Single-ply,SBD,M
Boys,59.87,7,Michael Davis #1,San Antonio East Central,59.87,136.08,,,136.08,Single-ply,S,M
Boys,59.87,8,Zach Morgan,San Antonio East Central,59.87,115.67,,,115.67,Single-ply,S,M
Boys,59.87,DQ,Juan Guerrero,Lytle,59.87,,,,,Single-ply,S,M
Boys,74.84,1,Ozzy Varela,Somerset,67.36,208.65,104.33,204.12,517.1,Single-ply,SBD,M
Boys,67.13,2,Matt Buentello,Corpus Christi Tuloso-Midway,67.13,190.51,108.86,204.12,503.49,Single-ply,SBD,M
Boys,67.13,3,Thomas Garza,San Antonio East Central,67.13,149.69,111.13,145.15,405.97,Single-ply,SBD,M
Boys,67.13,4,Jacob Rodriguez #10,Crystal City,67.13,145.15,86.18,174.63,405.97,Single-ply,SBD,M
Boys,67.13,5,Hector Villegas,Floresville,67.13,147.42,86.18,158.76,392.36,Single-ply,SBD,M
Boys,67.13,6,Justin Organ,San Antonio East Central,67.13,142.88,83.91,147.42,374.21,Single-ply,SBD,M
Boys,67.13,7,Ozzy Gonzalez,Somerset,64.05,127.01,70.31,172.37,369.68,Single-ply,SBD,M
Boys,67.13,8,Michael Raushuber,San Antonio East Central,67.13,136.08,90.72,136.08,362.87,Single-ply,SBD,M
Boys,67.13,9,Rey Martinez,Pearsall,64.77,127.01,88.45,145.15,360.61,Single-ply,SBD,M
Boys,67.13,10,Liam Brennan,Boerne Champion,67.13,136.08,83.91,140.61,360.61,Single-ply,SBD,M
Boys,67.13,11,Earvin Monje,Center Point,64.77,136.08,63.5,147.42,347,Single-ply,SBD,M
Boys,67.13,12,Andrew Mainini,Boerne Champion,67.13,133.81,77.11,136.08,347,Single-ply,SBD,M
Boys,67.13,13,Dustin Trevino,San Antonio Southside,66.68,113.4,72.57,142.88,328.85,Single-ply,SBD,M
Boys,67.13,14,Joseph Rios,San Antonio Kennedy,67.13,111.13,86.18,129.27,326.59,Single-ply,SBD,M
Boys,67.13,15,Matthew Rollins,Lytle,64.05,122.47,70.31,131.54,324.32,Single-ply,SBD,M
Boys,67.13,16,Alex Ramirez,Center Point,62.69,113.4,65.77,124.74,303.91,Single-ply,SBD,M
Boys,67.13,17,Johnny Salazar,Somerset,62.23,90.72,77.11,127.01,294.84,Single-ply,SBD,M
Boys,67.13,18,Jeremy Del Toro,San Antonio Kennedy,65.68,102.06,65.77,124.74,292.57,Single-ply,SBD,M
Boys,67.13,19,Kendal Williams,San Antonio Southside,66,170.1,111.13,,281.23,Single-ply,SB,M
Boys,74.84,20,Jj Aguinaga,Lytle,67.31,102.06,54.43,124.74,281.23,Single-ply,SBD,M
Boys,67.13,21,Johnny Alvarado,Crystal City,61.87,83.91,63.5,90.72,238.14,Single-ply,SBD,M
Boys,67.13,22,Dustin McDonald,San Antonio Southside,65.45,183.7,,,183.7,Single-ply,S,M
Boys,74.84,1,Steven Leal,Corpus Christi Tuloso-Midway,73.48,229.06,127.01,199.58,555.65,Single-ply,SBD,M
Boys,82.1,2,Andy Mohl,Corpus Christi Tuloso-Midway,75.07,213.19,140.61,201.85,555.65,Single-ply,SBD,M
Boys,74.84,3,Arturo Cervantez,Crystal City,74.84,192.78,131.54,222.26,546.58,Single-ply,SBD,M
Boys,74.84,4,Gilbert Perez,Floresville,73.48,204.12,99.79,195.04,498.95,Single-ply,SBD,M
Boys,74.84,5,Pedro Molina,Somerset,74.84,172.37,102.06,199.58,474,Single-ply,SBD,M
Boys,74.84,6,Daniel Rodriguez #11,San Antonio East Central,71.3,163.29,99.79,158.76,421.84,Single-ply,SBD,M
Boys,82.1,7,Ricardo Shell,Boerne Champion,75.07,151.95,90.72,167.83,410.5,Single-ply,SBD,M
Boys,74.84,8,Mario Munoz,Center Point,73.39,163.29,90.72,149.69,403.7,Single-ply,SBD,M
Boys,74.84,9,John Ventura,Pearsall,71.21,136.08,95.25,170.1,401.43,Single-ply,SBD,M
Boys,74.84,10,Abel DeLoera,Lytle,71.4,140.61,79.38,145.15,365.14,Single-ply,SBD,M
Boys,74.84,11,Daniel Ramirez,San Antonio Kennedy,74.39,124.74,86.18,129.27,340.19,Single-ply,SBD,M
Boys,74.84,12,Christopher Vinton,Pearsall,70.4,117.93,70.31,124.74,312.98,Single-ply,SBD,M
Boys,74.84,13,Roberto Zendejo,Center Point,68.4,113.4,54.43,102.06,269.89,Single-ply,SBD,M
Boys,74.84,14,Miguel Abrego,Floresville,67.86,154.22,,,154.22,Single-ply,S,M
Boys,82.1,1,Richard Pena,San Antonio Southside,79.92,219.99,149.69,192.78,562.45,Single-ply,SBD,M
Boys,82.1,2,Justin Quesada,Somerset,80.56,217.72,120.2,204.12,542.04,Single-ply,SBD,M
Boys,82.1,3,Dillion Brunet,Center Point,77.2,190.51,117.93,204.12,512.56,Single-ply,SBD,M
Boys,82.1,4,Justin Roberson,San Antonio Southside,81.19,204.12,124.74,181.44,510.29,Single-ply,SBD,M
Boys,82.1,5,Jj Elias,Somerset,77.93,199.58,102.06,204.12,505.76,Single-ply,SBD,M
Boys,82.1,6,Rueben Hinojosa,Lytle,78.56,183.7,92.99,190.51,467.2,Single-ply,SBD,M
Boys,82.1,7,David Clay,San Antonio East Central,76.2,181.44,97.52,185.97,464.93,Single-ply,SBD,M
Boys,89.81,8,Trenton Massengale,San Antonio East Central,82.33,192.78,92.99,172.37,458.13,Single-ply,SBD,M
Boys,82.1,9,Alex Bustamante #2,San Antonio Southside,79.2,142.88,83.91,163.29,390.09,Single-ply,SBD,M
Boys,82.1,10,Hector Martinez,San Antonio Kennedy,78.65,122.47,92.99,151.95,367.41,Single-ply,SBD,M
Boys,82.1,11,Michael Bustamante,Somerset,78.02,142.88,83.91,136.08,362.87,Single-ply,SBD,M
Boys,82.1,12,Dillon Forbes,Boerne Champion,79.47,122.47,88.45,136.08,347,Single-ply,SBD,M
Boys,82.1,13,John Valdez,Somerset,77.66,122.47,77.11,145.15,344.73,Single-ply,SBD,M
Boys,82.1,14,Alex Elizondo,Pearsall,78.65,197.31,122.47,,319.78,Single-ply,SB,M
Boys,82.1,15,Robert Leal,Corpus Christi Tuloso-Midway,80.01,192.78,113.4,,306.17,Single-ply,SB,M
Boys,82.1,DQ,EJ Flores,Boerne Champion,82.1,,,,,Single-ply,SB,M
Boys,89.81,1,Kameron Handy,Corpus Christi Tuloso-Midway,82.55,235.87,138.35,201.85,576.06,Single-ply,SBD,M
Boys,89.81,2,Jonathan Ramos,San Antonio Southside,89.54,195.04,142.88,179.17,517.1,Single-ply,SBD,M
Boys,89.81,3,Fernando Flores,Corpus Christi Tuloso-Midway,83.55,176.9,113.4,219.99,510.29,Single-ply,SBD,M
Boys,89.81,4,Josh Falcon,San Antonio East Central,85.73,195.04,111.13,195.04,501.22,Single-ply,SBD,M
Boys,89.81,5,Esteban Ferdin,Lytle,86.73,192.78,106.59,179.17,478.54,Single-ply,SBD,M
Boys,89.81,6,Carlos Carrillo,Lytle,87.27,172.37,106.59,185.97,464.93,Single-ply,SBD,M
Boys,99.79,7,Ryan Haycraft,San Antonio East Central,89.99,138.35,88.45,165.56,392.36,Single-ply,SBD,M
Boys,89.81,8,John Santillan,San Antonio East Central,89.63,133.81,81.65,147.42,362.87,Single-ply,SBD,M
Boys,89.81,9,Walker McCumber,Boerne Champion,88.36,127.01,63.5,163.29,353.8,Single-ply,SBD,M
Boys,89.81,10,Rudy Pena,San Antonio Kennedy,89.18,111.13,79.38,124.74,315.25,Single-ply,SBD,M
Boys,89.81,11,Dominic Potter,Lytle,86.36,61.23,47.63,99.79,208.65,Single-ply,SBD,M
Boys,99.79,1,Andres Castellanos,Corpus Christi Tuloso-Midway,92.99,254.01,140.61,263.08,657.71,Single-ply,SBD,M
Boys,99.79,2,Daniel Salazar,San Antonio Southside,92.8,249.48,138.35,210.92,598.74,Single-ply,SBD,M
Boys,99.79,3,Isaiah Vasquez,Pearsall,97.07,226.8,122.47,233.6,582.87,Single-ply,SBD,M
Boys,99.79,4,Chris Castillo,Corpus Christi Tuloso-Midway,90.54,181.44,120.2,197.31,498.95,Single-ply,SBD,M
Boys,99.79,5,MacNeal Price,San Antonio East Central,99.79,199.58,117.93,181.44,498.95,Single-ply,SBD,M
Boys,99.79,6,Justin Lomas,Crystal City,92.9,208.65,88.45,192.78,489.88,Single-ply,SBD,M
Boys,99.79,7,Christian Avila,San Antonio Southside,96.52,185.97,108.86,167.83,462.66,Single-ply,SBD,M
Boys,99.79,8,Jeremy Chamberlain,San Antonio East Central,97.52,156.49,106.59,145.15,408.23,Single-ply,SBD,M
Boys,99.79,9,Fred Carrasco,San Antonio Kennedy,97.52,136.08,83.91,147.42,367.41,Single-ply,SBD,M
Boys,99.79,10,Juan DeLeon,San Antonio Southside,97.34,204.12,,,204.12,Single-ply,S,M
Boys,99.79,11,Mark Cerda,Somerset,90.99,181.44,,,181.44,Single-ply,S,M
Boys,109.77,12,Colton Fuselier,Somerset,99.97,145.15,,,145.15,Single-ply,S,M
Boys,109.77,1,Salvador Marines,Somerset,104.6,278.96,113.4,254.01,646.37,Single-ply,SBD,M
Boys,109.77,2,Matt Watson #4,Corpus Christi Tuloso-Midway,109.32,204.12,136.08,192.78,532.97,Single-ply,SBD,M
Boys,109.77,3,Tony Barrera,Corpus Christi Tuloso-Midway,101.24,188.24,124.74,190.51,503.49,Single-ply,SBD,M
Boys,109.77,4,Joe Cantu,Lytle,105.23,201.85,99.79,201.85,503.49,Single-ply,SBD,M
Boys,109.77,5,Clay Carey,Boerne Champion,106.23,183.7,113.4,183.7,480.81,Single-ply,SBD,M
Boys,109.77,6,Rob Davis,Boerne Champion,108.23,183.7,113.4,167.83,464.93,Single-ply,SBD,M
Boys,109.77,7,Alex Trevino,San Antonio Southside,107.23,161.03,92.99,183.7,437.72,Single-ply,SBD,M
Boys,109.77,8,Danny DeLeon,San Antonio East Central,109.59,181.44,104.33,145.15,430.91,Single-ply,SBD,M
Boys,109.77,9,Harrison Couch,Boerne Champion,104.24,140.61,95.25,181.44,417.3,Single-ply,SBD,M
Boys,109.77,10,Chris Santos,Lytle,108.68,138.35,99.79,165.56,403.7,Single-ply,SBD,M
Boys,109.77,11,James Carte,Boerne Champion,100.97,142.88,104.33,142.88,390.09,Single-ply,SBD,M
Boys,109.77,12,Benjamin Frieda,Somerset,107.32,142.88,92.99,142.88,378.75,Single-ply,SBD,M
Boys,109.77,13,Conner Mitchell,Boerne Champion,101.24,127.01,99.79,136.08,362.87,Single-ply,SBD,M
Boys,109.77,14,David Nieto,Pearsall,104.87,124.74,70.31,147.42,342.46,Single-ply,SBD,M
Boys,109.77,15,Duke Aguirre,San Antonio Kennedy,106.41,111.13,81.65,136.08,328.85,Single-ply,SBD,M
Boys,109.77,16,Michael Blythe,Somerset,107.59,95.25,92.99,131.54,319.78,Single-ply,SBD,M
Boys,109.77,17,Gary La Rue,San Antonio Kennedy,104.6,104.33,68.04,127.01,299.37,Single-ply,SBD,M
Boys,109.77,DQ,Brian Leal,Pearsall,105.41,,,,,Single-ply,SBD,M
Boys,124.74,1,Alfred Godines,Somerset,120.47,249.48,181.44,226.8,657.71,Single-ply,SBD,M
Boys,124.74,2,Robert Huitron,San Antonio Southside,112.4,272.16,151.95,226.8,650.91,Single-ply,SBD,M
Boys,124.74,3,Justin Rosas,Floresville,116.39,215.46,142.88,215.46,573.79,Single-ply,SBD,M
Boys,124.74,4,Daniel Casares,Somerset,116.48,204.12,142.88,217.72,564.72,Single-ply,SBD,M
Boys,124.74,5,Joe Aguero,Somerset,120.11,219.99,108.86,195.04,523.9,Single-ply,SBD,M
Boys,124.74,6,Aaron Walls,Floresville,120.02,215.46,113.4,190.51,519.36,Single-ply,SBD,M
Boys,124.74,7,Gus Palacios,San Antonio Kennedy,110.86,176.9,131.54,201.85,510.29,Single-ply,SBD,M
Boys,124.74,8,Terry Kelly,San Antonio East Central,124.74,192.78,127.01,188.24,508.02,Single-ply,SBD,M
Boys,124.74,9,Robert Ramos,San Antonio Southside,122.2,181.44,122.47,195.04,498.95,Single-ply,SBD,M
Boys,124.74,10,Benny Ximenez,Floresville,112.49,204.12,113.4,170.1,487.61,Single-ply,SBD,M
Boys,124.74,11,Chirs Trujillo,Center Point,113.4,181.44,102.06,172.37,455.86,Single-ply,SBD,M
Boys,124.74,12,José Castillo #8,Somerset,119.57,151.95,106.59,149.69,408.23,Single-ply,SBD,M
Boys,124.74,13,Cody Martin,Center Point,111.31,136.08,79.38,147.42,362.87,Single-ply,SBD,M
Boys,124.74,14,Joseph Shamblem,Lytle,121.29,127.01,77.11,154.22,358.34,Single-ply,SBD,M
Boys,124.74,15,Alex Hernadez,Lytle,120.11,185.97,106.59,,292.57,Single-ply,SB,M
Boys,124.74+,1,Jonathon Saldana,Floresville,140.07,306.17,142.88,249.48,698.53,Single-ply,SBD,M
Boys,124.74+,2,Tyler Seiler,Pearsall,148.51,235.87,174.63,235.87,646.37,Single-ply,SBD,M
Boys,124.74+,3,Guy LaRue,San Antonio Kennedy,148.96,201.85,108.86,213.19,523.9,Single-ply,SBD,M
Boys,124.74+,4,Trent Rhodes,Center Point,136.08,204.12,113.4,163.29,480.81,Single-ply,SBD,M
Boys,124.74+,5,Gabriel Garza,Somerset,132.09,181.44,108.86,172.37,462.66,Single-ply,SBD,M
Boys,124.74+,DQ,Larry Martinez,Floresville,129.18,,,,,Single-ply,SBD,M
