Division,WeightClassKg,Place,Name,Team,BodyweightKg,Best3SquatKg,Best3BenchKg,Best3DeadliftKg,TotalKg,Equipment,Event,Sex
Boys,51.71,1,Jordan Tyler,Pattonville Prairiland,50.35,127.01,81.65,142.88,351.53,Single-ply,SBD,M
Boys,51.71,2,Brandon Jones #8,Cumby,48.99,111.13,58.97,104.33,274.42,Single-ply,SBD,M
Boys,51.71,3,Blake Myers,Simms Bowie,51.26,104.33,54.43,108.86,267.62,Single-ply,SBD,M
Boys,51.71,4,Cody Duckworth,Detroit,49.44,104.33,54.43,102.06,260.82,Single-ply,SBD,M
Boys,51.71,DQ,Danny Perez,Detroit,49.9,,,,,Single-ply,SBD,M
Boys,55.79,1,Jake Bradshaw,Winnsboro,55.79,106.59,68.04,124.74,299.37,Single-ply,SBD,M
Boys,55.79,2,Tim Jones,Cumby,53.98,108.86,56.7,104.33,269.89,Single-ply,SBD,M
Boys,55.79,3,Juan Leiia,Bogata Rivercrest,54.43,158.76,,,158.76,Single-ply,S,M
Boys,55.79,4,Lance Booth,Simms Bowie,55.34,113.4,,,113.4,Single-ply,S,M
Boys,55.79,DQ,Reece Bradshaw,Cumby,54.43,,,,,Single-ply,S,M
Boys,59.87,1,Thomas Fields,Winnsboro,59.42,156.49,88.45,156.49,401.43,Single-ply,SBD,M
Boys,59.87,2,Arturo Peralta,Pattonville Prairiland,58.97,142.88,86.18,165.56,394.63,Single-ply,SBD,M
Boys,59.87,3,Tres Allen,Simms Bowie,56.25,136.08,65.77,161.03,362.87,Single-ply,SBD,M
Boys,59.87,4,Bryan Mccoin,Paris Chisum,56.93,136.08,61.23,142.88,340.19,Single-ply,SBD,M
Boys,67.13,1,Brandon Greene,Winnsboro,67.13,190.51,108.86,188.24,487.61,Single-ply,SBD,M
Boys,67.13,2,Fillip Gann,Paris Chisum,63.05,181.44,99.79,161.03,442.25,Single-ply,SBD,M
Boys,67.13,3,Hunter Cox,Redwater,65.32,181.44,95.25,163.29,439.98,Single-ply,SBD,M
Boys,67.13,4,Gage Rainer,Simms Bowie,60.78,151.95,95.25,174.63,421.84,Single-ply,SBD,M
Boys,67.13,5,Brady Romans,Cumby,62.14,145.15,83.91,149.69,378.75,Single-ply,SBD,M
Boys,67.13,6,Colton Speights,Cumby,63.96,142.88,83.91,145.15,371.95,Single-ply,SBD,M
Boys,67.13,7,Lance Collins #3,Honey Grove,61.23,140.61,61.23,136.08,337.93,Single-ply,SBD,M
Boys,67.13,8,Travis Bryant,Detroit,63.96,136.08,68.04,129.27,333.39,Single-ply,SBD,M
Boys,67.13,9,Clint Elrod,Detroit,60.78,113.4,63.5,127.01,303.91,Single-ply,SBD,M
Boys,67.13,10,Scott Davis,Detroit,62.14,102.06,52.16,117.93,272.16,Single-ply,SBD,M
Boys,67.13,11,Devonya Bell,Detroit,67.13,117.93,,,117.93,Single-ply,S,M
Boys,67.13,DQ,Corwin Louis,Honey Grove,64.86,,,,,Single-ply,S,M
Boys,74.84,1,Graeson Bruce,Simms Bowie,72.12,195.04,90.72,210.92,496.68,Single-ply,SBD,M
Boys,74.84,2,Robbie Eitel,Redwater,69.4,181.44,113.4,181.44,476.27,Single-ply,SBD,M
Boys,74.84,3,Trey O'Neal,Clarksville,72.12,190.51,117.93,163.29,471.74,Single-ply,SBD,M
Boys,74.84,4,Garrett Oats,Honey Grove,73.94,151.95,111.13,204.12,467.2,Single-ply,SBD,M
Boys,74.84,5,Christian Wright,Redwater,74.84,170.1,106.59,174.63,451.32,Single-ply,SBD,M
Boys,74.84,6,Steven Culley,Cumby,74.84,167.83,102.06,165.56,435.45,Single-ply,SBD,M
Boys,74.84,7,Zach Loftis,Winnsboro,74.39,181.44,86.18,165.56,433.18,Single-ply,SBD,M
Boys,74.84,8,Skylar Pettit,Redwater,69.85,151.95,90.72,131.54,374.21,Single-ply,SBD,M
Boys,74.84,9,Kanon Walker,Simms Bowie,73.94,142.88,81.65,145.15,369.68,Single-ply,SBD,M
Boys,74.84,10,Tyler Premons,Pattonville Prairiland,68.04,92.99,70.31,142.88,306.17,Single-ply,SBD,M
Boys,74.84,11,Brian Graham,Pattonville Prairiland,68.04,108.86,56.7,131.54,297.1,Single-ply,SBD,M
Boys,74.84,12,Mason Justiss,Paris Chisum,73.48,181.44,,,181.44,Single-ply,S,M
Boys,74.84,DQ,Brad Gunn,Paris Chisum,69.85,,,,,Single-ply,S,M
Boys,82.1,1,Garret Anderson,Bogata Rivercrest,77.56,222.26,145.15,217.72,585.13,Single-ply,SBD,M
Boys,82.1,2,Chance Martin,Redwater,80.74,226.8,133.81,170.1,530.7,Single-ply,SBD,M
Boys,82.1,3,Cabe Bonner,Redwater,80.74,174.63,120.2,199.58,494.42,Single-ply,SBD,M
Boys,82.1,4,Caleb Stephens,Simms Bowie,80.29,181.44,95.25,192.78,469.47,Single-ply,SBD,M
Boys,82.1,5,Josh Trumble,Redwater,76.2,172.37,104.33,183.7,460.4,Single-ply,SBD,M
Boys,82.1,6,Josh Garton,Simms Bowie,78.93,185.97,90.72,172.37,449.06,Single-ply,SBD,M
Boys,82.1,7,Levi Wooton,Cumby,80.29,165.56,106.59,147.42,419.57,Single-ply,SBD,M
Boys,82.1,8,Dylan Stringer,Detroit,79.83,161.03,79.38,165.56,405.97,Single-ply,SBD,M
Boys,82.1,9,Aaron Shaw,Maud,75.75,161.03,83.91,140.61,385.55,Single-ply,SBD,M
Boys,82.1,10,Shane Autry,Detroit,76.2,151.95,68.04,149.69,369.68,Single-ply,SBD,M
Boys,82.1,11,Joseph Martin,Cumby,81.65,122.47,56.7,133.81,312.98,Single-ply,SBD,M
Boys,89.81,1,Ashton Slaughter,Winnsboro,83.46,240.4,149.69,219.99,610.08,Single-ply,SBD,M
Boys,89.81,2,Josh Takacs,Winnsboro,89.81,242.67,138.35,229.06,610.08,Single-ply,SBD,M
Boys,89.81,3,Quan Bell,Clarksville,86.18,222.26,149.69,217.72,589.67,Single-ply,SBD,M
Boys,89.81,4,Aaron Arnold,Paris Chisum,88.45,219.99,104.33,215.46,539.77,Single-ply,SBD,M
Boys,89.81,5,Lee Cecil,Redwater,85.28,195.04,124.74,204.12,523.9,Single-ply,SBD,M
Boys,89.81,6,KaLynn Miller,Paris Chisum,85.73,199.58,106.59,163.29,469.47,Single-ply,SBD,M
Boys,89.81,7,Dylan Anders,Winnsboro,85.28,181.44,104.33,174.63,460.4,Single-ply,SBD,M
Boys,89.81,8,Aaron Cunningham,Pattonville Prairiland,86.64,149.69,90.72,190.51,430.91,Single-ply,SBD,M
Boys,89.81,9,Jucobie Briscoe,Redwater,88.9,181.44,102.06,147.42,430.91,Single-ply,SBD,M
Boys,89.81,10,Lucas Dickens,Detroit,87.54,165.56,104.33,156.49,426.38,Single-ply,SBD,M
Boys,89.81,11,Jon Boehler,Paris Chisum,85.73,174.63,95.25,145.15,415.04,Single-ply,SBD,M
Boys,89.81,12,Josh Wilson,Pattonville Prairiland,85.28,104.33,,,104.33,Single-ply,S,M
Boys,99.79,1,Jessie Roberson,Redwater,97.52,272.16,174.63,238.14,684.92,Single-ply,SBD,M
Boys,99.79,2,Coty Rodriguez,Winnsboro,98.88,247.21,183.7,231.33,662.24,Single-ply,SBD,M
Boys,99.79,3,Josh Burks,Clarksville,96.62,265.35,145.15,217.72,628.23,Single-ply,SBD,M
Boys,99.79,4,Lorenzo Cavillio,Clarksville,97.07,197.31,145.15,217.72,560.19,Single-ply,SBD,M
Boys,99.79,5,Ryan Johnson #17,Winnsboro,94.35,224.53,120.2,163.29,508.02,Single-ply,SBD,M
Boys,99.79,6,Tyler Boyd,Maud,90.72,181.44,120.2,185.97,487.61,Single-ply,SBD,M
Boys,99.79,7,Randal Hawkins,Simms Bowie,97.98,147.42,83.91,170.1,401.43,Single-ply,SBD,M
Boys,99.79,8,Jessie Gaither,Honey Grove,91.63,145.15,104.33,149.69,399.16,Single-ply,SBD,M
Boys,99.79,9,James Evans,Cumby,99.34,131.54,86.18,142.88,360.61,Single-ply,SBD,M
Boys,99.79,10,Glen Goode,Cumby,92.99,124.74,79.38,142.88,347,Single-ply,SBD,M
Boys,99.79,DQ,Kyle Hasley,Paris Chisum,97.52,,,,,Single-ply,SBD,M
Boys,109.77,1,Chance Edwards,Redwater,109.77,256.28,158.76,226.8,641.83,Single-ply,SBD,M
Boys,109.77,2,Brandon McGlone,Winnsboro,107.05,260.82,145.15,226.8,632.76,Single-ply,SBD,M
Boys,109.77,3,Dylan Bloodwerth,Honey Grove,101.15,229.06,138.35,213.19,580.6,Single-ply,SBD,M
Boys,109.77,4,Jake Owens,Pattonville Prairiland,100.24,217.72,104.33,195.04,517.1,Single-ply,SBD,M
Boys,109.77,5,Nathaniel Dark,Cumby,108.41,183.7,92.99,185.97,462.66,Single-ply,SBD,M
Boys,124.74,1,Vince Davis,Detroit,117.03,226.8,122.47,217.72,566.99,Single-ply,SBD,M
Boys,124.74,2,Lucas Henson,Winnsboro,116.12,238.14,117.93,188.24,544.31,Single-ply,SBD,M
Boys,124.74,3,Jaime Humphrey,Pattonville Prairiland,110.68,149.69,77.11,149.69,376.48,Single-ply,SBD,M
Boys,124.74,4,Lane McKenzie,Paris Chisum,115.21,215.46,,,215.46,Single-ply,S,M
